{
	"image": "Nature/Land and Water/Eco landscaping.svg",
	"allowMany": false,
	"subcategory": "Land and Water",
	"name": "Eco landscaping",
	"category": "Nature",
	"description": "",
	"attributes": [],
	"iconSet": "",
	"parent": ""
}