<?xml version="1.0" encoding="UTF-8" standalone="no"?>
<!-- Generator: Adobe Illustrator 15.0.0, SVG Export Plug-In . SVG Version: 6.00 Build 0)  -->

<svg
   xmlns:dc="http://purl.org/dc/elements/1.1/"
   xmlns:cc="http://creativecommons.org/ns#"
   xmlns:rdf="http://www.w3.org/1999/02/22-rdf-syntax-ns#"
   xmlns:svg="http://www.w3.org/2000/svg"
   xmlns="http://www.w3.org/2000/svg"
   xmlns:sodipodi="http://sodipodi.sourceforge.net/DTD/sodipodi-0.dtd"
   xmlns:inkscape="http://www.inkscape.org/namespaces/inkscape"
   version="1.1"
   x="0px"
   y="0px"
   width="1210"
   height="1210"
   viewBox="0 0 1210 1210"
   enable-background="new 0 0 2000 1210"
   xml:space="preserve"
   id="svg415"
   sodipodi:docname="Energy infrastructure.svg"
   inkscape:version="0.92.3 (2405546, 2018-03-11)"><metadata
   id="metadata421"><rdf:RDF><cc:Work
       rdf:about=""><dc:format>image/svg+xml</dc:format><dc:type
         rdf:resource="http://purl.org/dc/dcmitype/StillImage" /><dc:title></dc:title></cc:Work></rdf:RDF></metadata><defs
   id="defs419" /><sodipodi:namedview
   pagecolor="#ffffff"
   bordercolor="#666666"
   borderopacity="1"
   objecttolerance="10"
   gridtolerance="10"
   guidetolerance="10"
   inkscape:pageopacity="0"
   inkscape:pageshadow="2"
   inkscape:window-width="1591"
   inkscape:window-height="1355"
   id="namedview417"
   showgrid="false"
   inkscape:zoom="0.19504132"
   inkscape:cx="1000"
   inkscape:cy="605"
   inkscape:window-x="0"
   inkscape:window-y="55"
   inkscape:window-maximized="0"
   inkscape:current-layer="svg415" />
<g
   id="guides">
</g>
<g
   id="energy_infrastructure"
   transform="translate(20.938,-19.1615)">
	<g
   id="g5">
		<path
   d="M 814.956,408.471 601.225,714.358 h 109.79 l -356.851,409.804 87.24,-315.682 -99.983,0.983 76.462,-235.3 H 312 L 439.463,124.161 H 856.124 L 666.909,407.5 Z"
   id="path3"
   inkscape:connector-curvature="0"
   style="fill:#ff6432" />
	</g>
</g>
<g
   id="solid_waste_transfer_station"
   display="none"
   style="display:none">
	<g
   display="inline"
   id="g16"
   style="display:inline">
		<polygon
   points="951.537,377.031 946.52,377.031 946.52,382.468 944.18,385.004 946.52,385.461 946.52,1017.401 207.98,1017.401 207.98,381.257 208.895,381.078 207.98,380.088 207.98,377.031 205.158,377.031 71.522,232.278 0,303.842 93.194,400.978 93.194,1124.04 1065.203,1124.04 1065.203,399.302 1153.074,307.754 1081.498,236.204 "
   id="polygon8"
   style="stroke:#000000" />
		<polygon
   points="668.441,769.196 612.943,647.998 513.969,606.765 464.467,689.244 357.21,697.513 315.963,763.496 270.119,823.739 260.09,974.394 913.42,972.229 885.188,804.742 786.185,771.751 "
   id="polygon10"
   style="stroke:#000000" />
		<polygon
   points="727.326,277.962 606.679,336.202 581.7,448.527 616.708,604.573 768.923,477.661 706.542,386.133 "
   id="polygon12"
   style="stroke:#000000" />
		<polygon
   points="827.162,124.04 756.419,261.331 789.734,369.489 856.282,265.499 956.145,194.77 "
   id="polygon14"
   style="stroke:#000000" />
	</g>
</g>
<g
   id="landfill"
   display="none"
   style="display:none">
	<g
   display="inline"
   id="g23"
   style="display:inline">
		<polygon
   points="872.888,453.929 647.655,517.8 473.503,438.999 439.253,575.799 312.015,564.112 259.006,692.749 200.07,743.032 187.181,956.563 1032.642,963.693 990.593,716.122 863.382,669.334 "
   id="polygon19"
   style="stroke:#000000" />
		<path
   d="m 0,119.812 v 1000 h 1228.517 v -54.071 -945.929 z m 1120.319,891.802 H 108.199 v -783.56 h 1012.12 z"
   id="path21"
   inkscape:connector-curvature="0"
   style="stroke:#000000" />
	</g>
</g>
<g
   id="incinerator"
   display="none"
   style="display:none">
	<g
   display="inline"
   id="g30"
   style="display:inline">
		<polygon
   points="207.062,1037.766 207.062,494.966 109.755,494.966 109.755,1128.162 1058.309,1128.162 1058.309,494.966 957.685,494.966 957.685,1037.766 "
   id="polygon26"
   style="stroke:#000000" />
		<path
   d="m 589.652,996.01 c 138.454,0 238.743,-183.253 227.454,-326.36 C 806.987,541.519 698.415,397.683 698.415,397.683 703.38,491.636 659.989,528.273 624.26,516.363 594.593,506.482 648.175,409.939 639.106,343.29 624.26,234.503 527.526,128.162 527.526,128.162 c 26.349,56.494 -85.684,245.045 -160.388,417.867 -79.143,182.966 4.105,461.27 222.514,449.981 z M 540.199,555.922 c 0,0 48.498,123.405 39.548,182.954 0,0 57.329,-34.345 69.215,-108.774 0,0 64.633,132.809 29.691,202.728 -64.299,128.562 -184.947,18.188 -187.906,-89.013 -2.196,-78.81 67.281,-107.51 49.452,-187.895 z"
   id="path28"
   inkscape:connector-curvature="0"
   style="stroke:#000000" />
	</g>
</g>
<g
   id="waste_water_treatment_plant"
   display="none"
   style="display:none">
	<g
   display="inline"
   id="g35"
   style="display:inline">
		<path
   d="m 624.439,905.237 c 0,59.308 -22.021,109.959 -66.062,151.953 -44.041,41.969 -96.101,62.972 -156.151,62.972 -58.07,0 -109.621,-20.169 -154.666,-60.468 C 202.516,1019.355 180,970.217 180,912.251 c 0,-61.968 32.359,-155.265 97.091,-279.892 15.346,-29.309 55.723,-104.94 121.12,-226.907 24.68,35.319 64.731,107.287 120.129,215.916 70.728,139.946 106.099,234.573 106.099,283.869 z M 1131.943,490.536 836.653,801.848 534.35,490.536 712.536,489.532 C 706.525,419.468 680.659,362.401 634.949,318.36 589.239,274.319 531.351,252.298 461.274,252.298 c -140.128,0 -231.223,85.749 -273.269,257.259 v -72.072 c 0,-90.09 45.371,-167.168 136.139,-231.235 81.407,-57.379 166.491,-86.088 255.251,-86.088 113.44,0 204.86,33.703 274.273,101.107 64.066,62.059 107.769,150.819 131.132,266.255 28.031,2.008 77.079,3.012 147.143,3.012 z"
   id="path33"
   inkscape:connector-curvature="0"
   style="stroke:#000000" />
	</g>
</g>
<g
   id="historical_feature"
   display="none"
   style="display:none">
	<g
   display="inline"
   id="g40"
   style="display:inline">
		<path
   d="m 914.492,876.146 h -47.19 C 834,823.08 822.7,764.63 822.559,700.536 c -0.583,-118.92 41.986,-249.488 42.737,-365.665 0,-3.495 -0.052,-6.86 -0.104,-10.018 C 863.729,216.908 775.51,126.178 653.95,127.473 l -455.878,-0.337 c -1.928,0 -3.714,0.492 -5.617,0.57 -1.683,-0.026 -3.3,-0.311 -4.996,-0.259 v 0.776 c -64.326,5.462 -114.946,58.709 -114.946,124.408 0,69.349 56.173,125.521 125.508,125.521 h 23.906 28.824 c -3.599,71.29 -16.878,156.946 -31.154,242.448 -11.882,71.212 -17.123,141.311 -17.123,204.68 0,55.189 3.947,105.201 11.234,146.929 7.778,41.909 17.007,74.862 35.425,101.11 22.353,30.934 59.344,53.843 103.091,53.843 7.895,0 15.635,-0.751 23.129,-2.148 l 538.984,2.148 c 69.49,0 125.663,-56.173 125.663,-125.521 0,-69.348 -56.173,-125.495 -125.508,-125.495 z M 198.021,298.657 C 172.653,298.605 152.048,278 152.048,252.632 c 0,-23.012 16.98,-41.883 39.049,-45.249 23.828,2.019 31.18,8.387 42.802,27.595 7.585,14.004 13.072,36.137 15.843,63.679 l -27.814,-0.052 z m 154.203,748.984 c -15.234,0 -28.837,-7.766 -38.777,-21.175 -5.242,-6.316 -15.558,-32.436 -21.382,-68.027 -6.316,-35.801 -10.096,-81.852 -10.096,-133.158 0,-58.969 4.957,-124.977 16.088,-191.607 16.735,-100.981 33.16,-203.981 33.212,-291.113 -0.207,-50.892 -5.643,-96.581 -23.4,-135.798 l 346.03,0.233 c 82.874,1.243 128.898,52.988 131.812,119.36 0,2.641 0.052,5.644 0.052,8.517 0.764,96.425 -42.13,230.126 -42.726,365.665 -0.116,58.45 8.944,118.609 34.507,175.61 h -425.32 c -10.484,0 -20.734,4.271 -28.139,11.675 -7.403,7.377 -11.661,17.654 -11.661,28.061 0,10.639 4.154,20.631 11.661,28.137 7.508,7.508 17.499,11.676 28.139,11.676 25.381,0 45.947,20.553 45.947,45.947 0,25.394 -20.567,45.945 -45.947,45.997 z m 562.268,0 -444.785,-1.761 c 5.177,-13.744 8.012,-28.655 8.012,-44.238 0,-16.23 -3.081,-31.711 -8.672,-45.947 h 445.445 c 25.433,0 45.96,20.553 46.012,45.947 -0.052,25.394 -20.631,45.947 -46.012,45.999 z"
   id="path38"
   inkscape:connector-curvature="0"
   style="stroke:#000000" />
	</g>
</g>
<g
   id="museum"
   display="none"
   style="display:none">
	<g
   display="inline"
   id="g45"
   style="display:inline">
		<path
   d="M 1014.387,1052.937 V 528.421 h 120.592 L 638.885,141.16 142.803,528.421 h 121.564 v 524.516 H 140.844 v 88.224 h 996.08 v -88.224 z m -94.116,0.986 H 801.627 V 635.281 L 685.941,1053.923 H 585.48 L 471.236,635.281 v 418.642 H 352.604 V 530.367 h 191.828 l 91.494,369.611 1.959,0.26 94.076,-369.871 h 188.311 v 523.556 z"
   id="path43"
   inkscape:connector-curvature="0"
   style="stroke:#000000" />
	</g>
</g>
<g
   id="artspot"
   display="none"
   style="display:none">
	<g
   display="inline"
   id="g54"
   style="display:inline">
		<polygon
   points="414.504,1140.513 599.771,703.41 490.65,481.925 167.07,1140.513 "
   id="polygon48"
   style="stroke:#000000" />
		<path
   d="m 636.789,870.528 c -24.842,0 -47.135,9.886 -66.854,29.604 -19.77,19.771 -29.604,42.063 -29.604,66.879 0,26.72 9.371,49.348 28.162,67.805 18.766,18.432 41.549,27.698 68.295,27.698 26.102,0 48.523,-9.421 67.316,-28.188 18.766,-18.766 28.16,-41.213 28.16,-67.315 0,-24.815 -9.703,-47.108 -29.113,-66.879 -19.434,-19.718 -41.547,-29.604 -66.362,-29.604 z"
   id="path50"
   inkscape:connector-curvature="0"
   style="stroke:#000000" />
		<path
   d="m 1124.867,1127.271 c 0.238,-0.35 0.471,-0.705 0.689,-1.071 3.758,-6.255 3.912,-14.106 0.514,-20.517 L 723.566,351.772 719.318,346.314 502.826,146.04 c -6.564,-6.075 -16.346,-7.259 -24.197,-2.96 -7.852,4.273 -12.074,13.18 -10.477,21.958 l 50.428,280.075 2.008,5.869 348.164,674.085 c 3.553,6.899 10.709,11.275 18.508,11.275 h 220.404 c 5.892,0 11.462,-2.51 15.371,-6.77 l 3.035,-10e-4 z M 561.784,257.393 678.37,365.204 558.398,430.869 529.938,272.957 Z"
   id="path52"
   inkscape:connector-curvature="0"
   style="stroke:#000000" />
	</g>
</g>
<g
   id="local_music"
   display="none"
   style="display:none">
	<g
   display="inline"
   id="g59"
   style="display:inline">
		<path
   d="m 1035.688,474.132 c 0,-25.489 -3.592,-47.062 -10.773,-64.69 C 1003.997,362.38 969.038,321.195 920.019,285.885 873.585,252.561 842.57,215.318 826.874,174.132 v -7.835 c 0,-16.349 -8.514,-24.51 -25.49,-24.51 -16.348,0 -24.51,8.161 -24.51,24.51 V 681.013 C 749.425,641.787 714.442,610.572 671.978,587.367 629.46,564.187 583.404,552.56 533.73,552.56 c -81.064,0 -150.352,28.93 -207.835,86.765 -57.534,57.86 -86.288,127.323 -86.288,208.338 0,81.064 28.754,150.326 86.288,207.86 57.483,57.509 126.771,86.264 207.835,86.264 81.04,0 150.502,-28.755 208.338,-86.264 57.836,-57.534 86.766,-126.796 86.766,-207.86 0,-11.1 -0.652,-22.2 -1.959,-33.325 V 383.926 c 16.977,8.514 34.305,17.027 51.959,25.516 22.225,10.446 40.205,22.526 53.918,36.263 31.391,32.044 47.061,81.718 47.061,149.021 0,24.862 -2.938,47.715 -8.814,68.634 43.142,-65.345 64.689,-128.429 64.689,-189.228 z M 451.384,617.276 c -15.696,18.96 -29.106,40.858 -40.206,65.695 -16.349,-4.57 -30.061,-9.819 -41.186,-15.695 23.531,-22.2 50.654,-38.875 81.392,-50 z m -107.861,77.449 c 15.042,9.167 32.998,17.002 53.917,23.531 -10.447,31.366 -17.001,65.369 -19.588,101.959 -28.779,-9.142 -55.575,-20.895 -80.412,-35.284 9.166,-33.35 24.511,-63.385 46.083,-90.206 z m -53.918,152.938 c 0,-7.183 0.326,-15.018 0.979,-23.531 26.796,14.39 55.55,26.168 86.288,35.31 0,32.697 3.566,64.39 10.773,95.103 -44.45,-15.043 -74.837,-32.019 -91.186,-50.979 -4.568,-18.309 -6.854,-36.918 -6.854,-55.903 z m 31.367,119.613 c 22.878,11.778 49.674,21.898 80.412,30.412 11.1,30.035 25.138,55.524 42.14,76.469 -52.939,-20.944 -93.798,-56.554 -122.552,-106.881 z m 194.123,118.634 c -27.448,-13.712 -50.326,-39.88 -68.634,-78.428 23.531,4.57 46.409,7.183 68.634,7.835 z m 0,-107.835 c -27.448,-1.331 -55.876,-5.249 -85.283,-11.778 -9.166,-31.366 -14.39,-64.038 -15.696,-98.041 32.02,7.207 65.696,11.451 100.979,12.757 z m 0,-135.309 c -34.655,-0.627 -67.98,-4.896 -100,-12.731 1.959,-36.615 8.488,-70.92 19.613,-102.964 25.49,4.596 52.286,7.208 80.387,7.86 z m 0,-145.103 c -22.878,-0.628 -44.776,-2.938 -65.67,-6.855 18.282,-36.59 40.181,-63.06 65.67,-79.408 z m 254.923,87.268 c -25.49,14.39 -52.963,26.143 -82.371,35.284 -2.611,-35.937 -8.814,-69.915 -18.609,-101.959 21.547,-6.529 40.182,-14.364 55.877,-23.531 21.571,26.821 36.589,56.856 45.103,90.206 z M 698.445,667.276 c -11.777,5.876 -26.168,11.125 -43.145,15.695 -11.777,-25.489 -25.49,-47.715 -41.186,-66.675 31.394,11.126 59.47,28.102 84.331,50.98 z M 552.363,613.358 c 25.489,15.671 47.062,41.839 64.69,78.429 -20.919,3.289 -42.491,5.248 -64.69,5.876 z m 0,121.573 c 27.448,-0.652 53.917,-3.265 79.406,-7.86 10.447,32.044 16.977,66.675 19.613,103.942 -32.044,7.183 -65.042,11.427 -99.02,12.732 V 734.931 Z m 0,146.082 c 33.978,-1.306 66.976,-5.223 99.02,-11.777 -1.33,34.003 -6.555,66.675 -15.695,98.041 -28.102,5.901 -55.876,9.468 -83.324,10.799 v -97.063 z m 0,203.918 v -69.613 c 22.199,-0.652 44.425,-2.938 66.649,-6.855 -17.628,37.241 -39.854,62.756 -66.649,76.468 z m 68.634,-9.794 c 17.63,-20.267 31.993,-45.756 43.118,-76.469 31.393,-8.514 58.84,-18.985 82.371,-31.392 -28.779,50.98 -70.591,86.916 -125.489,107.861 z M 776.873,872.174 c 0,0.678 0,1.657 0,2.963 -1.33,9.142 -2.938,18.96 -4.896,29.407 -17.654,18.96 -49.021,35.937 -94.125,50.979 7.184,-30.713 11.102,-62.758 11.754,-96.082 31.391,-9.142 60.447,-20.593 87.268,-34.33 v 47.063 z"
   id="path57"
   inkscape:connector-curvature="0"
   style="stroke:#000000" />
	</g>
</g>
<g
   id="cultural_performance"
   display="none"
   style="display:none">
	<g
   display="inline"
   id="g64"
   style="display:inline">
		<path
   d="m 1049.189,216.63 c 0,0 -60.674,-107.468 -419.545,-107.468 -332.225,0 -388.561,142.665 -388.561,142.665 36.111,829.776 409.242,857.335 409.242,857.335 468.142,-53.036 398.864,-892.532 398.864,-892.532 z M 347.207,500.895 c -3.045,-28.574 42.912,-57.046 102.85,-63.542 59.762,-6.396 110.691,11.521 113.889,40.094 3.07,28.625 -43.062,57.198 -102.824,63.593 -59.862,6.598 -110.768,-11.471 -113.915,-40.145 z m 89.857,221.94 C 685.675,907.624 897.16,679.746 897.16,679.746 683.342,1210.134 437.064,722.835 437.064,722.835 Z m 521,-221.94 c -3.248,28.675 -54.053,46.743 -114.016,40.145 -59.711,-6.395 -105.666,-34.968 -102.596,-63.593 2.969,-28.573 54,-46.489 113.812,-40.094 59.761,6.496 105.896,34.967 102.8,63.542 z"
   id="path62"
   inkscape:connector-curvature="0"
   style="stroke:#000000" />
	</g>
</g>
<g
   id="artisan__x002F__art_studio"
   display="none"
   style="display:none">
	<g
   display="inline"
   id="g69"
   style="display:inline">
		<path
   d="M 987.495,430.615 C 854.455,321.267 822.253,237.556 822.253,237.556 c 43.23,0 86.462,3.295 86.462,-54.155 0,-41.362 -61.058,-47.252 -132.235,-47.252 H 384.965 c -71.203,0 -132.209,5.89 -132.209,47.252 0,52.857 43.205,54.155 86.436,54.155 0,0 -26.52,86.824 -158.132,187.506 l 3.893,-2.024 c 0,0 -47.85,36.64 -75.952,117.911 h 43.282 c 0,0 106.234,-146.221 211.742,-146.221 88.459,0 269.141,0 332.922,0 -0.285,18.346 -2.673,45.125 -10.354,65.52 -9.575,22.887 -24.677,33.785 -52.649,33.785 l -197.808,0.831 c -12.975,0 -23.432,10.509 -23.432,23.432 0,12.975 10.457,23.483 23.432,23.483 0,0 373.039,0.52 409.964,0.52 29.192,0 58.074,4.359 58.074,33.785 0,35.005 -25.301,40.895 -54.7,40.895 H 563.181 c -12.948,0 -23.458,10.432 -23.458,23.406 0,12.922 10.51,23.458 23.458,23.458 h 321.323 c 19.021,0 45.852,7.992 45.852,42.504 0,25.118 -21.979,39.39 -48.653,39.39 h -316.86 c -12.948,0 -23.432,10.432 -23.432,23.381 0,12.896 10.483,23.432 23.432,23.432 l 322.465,1.349 c 25.768,0 43.023,11.729 43.023,37.522 0,21.849 -14.479,36.12 -40.221,36.12 -25.768,0 -328.589,0.182 -328.589,0.182 -12.975,0 -23.433,10.509 -23.433,23.458 0,12.896 10.458,23.432 23.433,23.432 l 275.602,1.012 c 24.625,0 32.98,16.011 32.98,31.684 0,16.529 -18.242,27.506 -37.418,27.713 -98.164,0 -427.221,1.453 -502.082,1.453 -35.758,0 -72.086,-4.463 -100.682,-13.908 -28.854,-9.445 -48.343,-23.665 -55.997,-39.441 l -6.539,-12.975 h -22.29 c 3.113,7.447 5.761,14.609 9.186,22.264 41.907,70.893 101.9,140.721 183.328,203.75 H 836.24 C 1110.181,900.6 1155.357,568.507 987.495,430.615 Z"
   id="path67"
   inkscape:connector-curvature="0"
   style="stroke:#000000" />
	</g>
</g>
<g
   id="child_friendly_site"
   display="none"
   style="display:none">
	<g
   display="inline"
   id="g74"
   style="display:inline">
		<path
   d="m 1167.059,460.418 v 20.588 c 0,13.082 -6.541,19.607 -19.607,19.607 H 902.353 c -1.96,11.766 -2.94,25.491 -2.94,41.177 0,53.601 7.843,107.521 23.529,161.766 10.448,35.294 15.687,73.865 15.687,115.686 0,116.988 -40.854,200 -122.549,249.02 -60.785,36.597 -130.071,54.901 -207.843,54.901 -43.796,0 -86.274,-6.219 -127.451,-18.627 C 386.01,1076.427 321.962,1029.046 288.629,962.38 265.1,914.677 255.296,854.536 259.217,781.987 c -28.11,-14.369 -50.659,-39.216 -67.647,-74.51 -14.384,-32.016 -21.568,-65.35 -21.568,-100 0,-11.106 0.644,-21.891 1.961,-32.353 5.224,-32.676 18.29,-57.507 39.216,-74.511 H 172.944 V 440.81 h 1.96 c 3.922,-162.086 105.883,-251.302 305.882,-267.647 -0.659,-1.96 -0.98,-3.922 -0.98,-5.882 0,-12.408 6.863,-22.871 20.588,-31.373 13.725,-8.486 30.055,-12.745 49.019,-12.745 18.95,0 35.294,4.259 49.02,12.745 13.726,8.501 20.589,18.965 20.589,31.373 0,1.96 -0.337,4.259 -0.981,6.862 190.837,19.607 288.234,108.502 292.155,266.667 h 237.255 c 13.067,0 19.608,6.541 19.608,19.608 z M 836.667,541.79 c 0,-15.027 0,-28.753 0,-41.177 H 394.51 c 0.644,3.279 0.644,5.883 0,7.844 -1.317,20.925 -12.423,30.729 -33.333,29.411 -18.964,0 -34.651,0 -47.059,0 -28.11,0 -47.718,3.57 -58.824,10.678 -11.121,7.123 -17.984,19.745 -20.588,37.852 -1.317,7.124 -1.961,14.231 -1.961,21.34 0,43.994 12.408,78.937 37.255,104.825 13.067,13.603 27.114,19.424 42.157,17.463 4.565,-1.302 7.506,-2.604 8.823,-3.922 l -0.98,0.98 c 6.526,-8.486 15.028,-12.744 25.49,-12.744 20.91,0 31.373,10.462 31.373,31.372 0,6.541 -1.96,12.744 -5.883,18.627 -11.121,15.687 -27.45,25.168 -49.02,28.432 -1.96,59.481 5.883,106.863 23.53,142.157 24.832,50.321 75.812,86.918 152.941,109.804 35.938,10.446 72.549,15.687 109.804,15.687 66.008,0 124.51,-15.364 175.49,-46.079 60.785,-36.611 91.177,-101.623 91.177,-195.098 0,-36.597 -4.259,-69.607 -12.745,-99.021 -17.004,-59.466 -25.49,-118.95 -25.49,-178.431 z M 627.843,881.986 c 64.706,0 123.192,-22.55 175.49,-67.647 -20.925,89.553 -68.628,138.879 -143.137,148.04 -10.463,1.302 -20.925,1.961 -31.373,1.961 -92.816,0 -155.239,-50.322 -187.255,-150.981 60.126,45.756 122.213,68.627 186.275,68.627 z M 491.569,680.516 c -9.804,-14.706 -14.706,-32.185 -14.706,-52.451 0,-20.251 4.902,-37.577 14.706,-51.961 9.804,-14.369 21.568,-21.568 35.294,-21.568 13.726,0 25.321,7.199 34.804,21.568 9.467,14.384 14.216,31.71 14.216,51.961 0,20.267 -4.749,37.745 -14.216,52.451 -9.482,14.706 -21.078,22.059 -34.804,22.059 -13.726,0 -25.49,-7.353 -35.294,-22.059 z m 222.549,0 c -9.804,-14.706 -14.706,-32.185 -14.706,-52.451 0,-20.251 4.902,-37.577 14.706,-51.961 9.804,-14.369 21.569,-21.568 35.294,-21.568 13.725,0 25.49,7.199 35.294,21.568 9.804,14.384 14.706,31.71 14.706,51.961 0,20.267 -4.902,37.745 -14.706,52.451 -9.804,14.706 -21.568,22.059 -35.294,22.059 -13.726,0 -25.491,-7.353 -35.294,-22.059 z"
   id="path72"
   inkscape:connector-curvature="0"
   style="stroke:#000000" />
	</g>
</g>
<g
   id="senior_friendly_site"
   display="none"
   style="display:none">
	<path
   display="inline"
   d="m 836.458,647.376 c 0,-24.832 -20.138,-44.944 -44.944,-44.944 H 728.78 c 0,-54.646 0,-93.448 0,-101.155 0,-44.597 -7.041,-103.895 -58.793,-121.123 V 362.625 C 722.571,347.386 761,298.881 761,241.397 761,171.67 704.505,115.163 634.778,115.163 c -69.738,0 -126.233,56.508 -126.233,126.234 0,44.398 22.927,83.438 57.594,105.936 v 27.933 c -13.411,0 -24.14,0 -37.037,0 -2.587,0 -5.275,0.425 -8.024,1.224 -47.153,0.813 -66.513,35.032 -76.095,58.322 -10.081,24.524 -53.693,136.802 -72.873,186.25 -4.409,6.095 -7.327,13.336 -8.218,21.198 -0.58,1.496 -0.891,2.3 -0.891,2.3 l 0.688,0.017 c -0.057,0.927 -0.095,1.858 -0.095,2.8 0,24.781 20.125,44.895 44.933,44.895 h 50.664 c 0,185.229 0,421.076 0,421.076 l 269.59,1.828 c 0,0 0,-242.392 0,-422.904 h 62.734 c 1.283,0 2.549,-0.066 3.805,-0.172 v 423.076 h 28.254 V 678.818 c 7.963,-8.101 12.884,-19.199 12.884,-31.442 z"
   id="path77"
   inkscape:connector-curvature="0"
   style="display:inline;stroke:#000000" />
</g>
<g
   id="alternative_health_resource"
   display="none"
   style="display:none">
	<g
   display="inline"
   id="g88"
   style="display:inline">
		<path
   d="m 217.143,627.162 c 0.282,145.102 80.083,271.354 198.168,337.557 -11.9,-29.58 -17.86,-61.669 -17.86,-96.277 0,-63.184 19.708,-118.297 59.122,-165.209 42.565,-50.714 97.652,-78.23 165.235,-82.604 56.936,-3.124 101.661,-24.081 134.255,-62.923 29.99,-35.641 45.063,-80.08 45.063,-133.292 0,-68.833 -25.981,-123.92 -77.918,-165.209 -0.017,-0.013 -0.033,-0.025 -0.049,-0.038 -37.51,-12.169 -77.535,-18.781 -119.106,-18.862 -213.632,0.415 -386.494,173.252 -386.91,386.857 z m 478.86,-216.834 c 3.072,26.945 -3.801,51.156 -20.696,72.765 -16.87,21.607 -39.129,33.947 -66.646,37.071 -26.893,3.15 -51.364,-3.748 -73.206,-20.618 -25.07,-20.046 -37.54,-46.027 -37.54,-77.944 0,-23.145 7.185,-43.477 21.556,-61.023 16.922,-21.867 39.103,-34.416 66.672,-37.54 26.893,-3.124 51.182,3.749 72.764,20.645 21.554,16.894 33.92,39.128 37.096,66.644 z"
   id="path80"
   inkscape:connector-curvature="0"
   style="fill:none" />
		<path
   d="m 661.222,967.004 c 26.894,-3.124 48.943,-15.464 66.178,-37.072 17.234,-21.555 24.264,-45.845 21.14,-72.737 -3.15,-27.544 -15.464,-49.75 -37.072,-66.646 -21.607,-16.922 -46.157,-23.795 -73.701,-20.671 -25.044,2.499 -45.845,13.329 -62.428,32.386 -16.584,19.082 -24.889,41.186 -24.889,66.178 0,3.774 0.312,7.523 0.938,11.271 3.124,27.57 15.334,49.75 36.604,66.672 21.267,16.922 45.687,23.769 73.23,20.619 z"
   id="path82"
   inkscape:connector-curvature="0"
   style="fill:none" />
		<path
   d="m 586.142,323.039 c -27.569,3.124 -49.75,15.672 -66.672,37.54 -14.371,17.547 -21.556,37.879 -21.556,61.023 0,31.917 12.47,57.898 37.54,77.944 21.842,16.87 46.313,23.769 73.206,20.618 27.518,-3.124 49.776,-15.464 66.646,-37.071 16.896,-21.608 23.769,-45.819 20.696,-72.765 -3.176,-27.517 -15.542,-49.75 -37.098,-66.645 -21.581,-16.896 -45.87,-23.768 -72.762,-20.644 z"
   id="path84"
   inkscape:connector-curvature="0" />
		<path
   d="m 1104.053,627.162 c -0.053,-276.111 -223.889,-499.948 -500,-500 -276.164,0.052 -500,223.889 -500.053,500 0.053,276.164 223.889,500 500.053,500 26.894,0 53.29,-2.133 79.033,-6.222 56.388,-5.984 111.398,-23.18 164.979,-51.573 59.409,-31.916 109.836,-74.195 151.125,-126.73 67.807,-85.547 102.498,-181.818 104.109,-288.851 0.462,-8.816 0.701,-17.692 0.701,-26.624 z M 723.208,259.204 c 51.937,41.289 77.918,96.376 77.918,165.209 0,53.212 -15.073,97.651 -45.063,133.292 -32.594,38.842 -77.319,59.799 -134.255,62.923 -67.583,4.374 -122.67,31.891 -165.235,82.604 -39.414,46.912 -59.122,102.025 -59.122,165.209 0,34.608 5.96,66.697 17.86,96.277 C 297.226,898.516 217.425,772.263 217.143,627.161 c 0.416,-213.605 173.278,-386.442 386.91,-386.858 41.571,0.081 81.596,6.693 119.106,18.862 0.016,0.014 0.032,0.026 0.049,0.039 z M 551.387,879.713 c -0.625,-3.748 -0.938,-7.497 -0.938,-11.271 0,-24.992 8.305,-47.096 24.889,-66.178 16.583,-19.057 37.384,-29.887 62.428,-32.386 27.544,-3.124 52.094,3.749 73.701,20.671 21.608,16.896 33.922,39.102 37.072,66.646 3.124,26.893 -3.905,51.183 -21.14,72.737 -17.234,21.608 -39.284,33.948 -66.178,37.072 -27.543,3.15 -51.963,-3.697 -73.231,-20.619 -21.269,-16.922 -33.479,-39.102 -36.603,-66.672 z"
   id="path86"
   inkscape:connector-curvature="0" />
	</g>
</g>
<g
   id="eco_spiritual_site"
   display="none"
   style="display:none">
	<g
   display="inline"
   id="g99"
   style="display:inline">
		<path
   d="M 953.865,264.148 C 858.433,168.824 739.293,121.162 596.505,121.162 454.357,121.162 335.401,169.01 239.651,264.653 143.875,360.351 96,479.187 96,621.162 96,763.137 143.875,882 239.651,977.67 c 95.75,95.644 214.705,143.492 356.854,143.492 142.149,0 261.079,-47.849 356.854,-143.492 95.75,-95.67 143.65,-214.532 143.65,-356.508 C 1097.01,478.495 1049.27,359.499 953.865,264.148 Z M 880.27,903.89 c -75.07,74.791 -169.662,112.16 -283.765,112.16 -113.463,0 -207.883,-37.555 -283.299,-112.665 -75.417,-75.138 -113.104,-169.212 -113.104,-282.223 0,-113.677 37.528,-207.91 112.612,-282.701 75.07,-74.818 169.649,-112.188 283.791,-112.188 116.749,0 213.536,42.21 290.296,126.63 70.707,77.823 106.082,167.216 106.082,268.259 0,113.676 -37.529,207.937 -112.613,282.728 z"
   id="path91"
   inkscape:connector-curvature="0"
   style="stroke:#000000" />
		<path
   d="m 547.46,659.275 h -30.028 c -6.024,0 -23.379,5.665 -52.063,16.996 -28.712,11.356 -46.398,17.021 -53.062,17.021 -6.662,0 -24.695,-5.665 -54.059,-17.021 -29.35,-11.331 -46.372,-16.996 -51.04,-16.996 h -37.05 c 1.343,30.028 21.038,57.051 59.072,81.068 32.036,20.027 58.381,30.028 79.087,30.028 22.674,0 51.545,-13.192 86.573,-39.55 35.043,-26.33 52.57,-50.188 52.57,-71.546 z"
   id="path93"
   inkscape:connector-curvature="0"
   style="stroke:#000000" />
		<path
   d="m 589.483,913.278 c -4.003,0 -57.037,-8.564 -159.157,-25.72 3.352,18.193 25.028,36.625 65.057,55.322 36.704,16.623 68.089,24.922 94.101,24.922 24.695,0 55.708,-7.527 93.104,-22.581 43.365,-17.66 67.742,-36.863 73.049,-57.663 -20.652,2.607 -55.043,8.086 -103.078,16.357 -36.052,6.252 -57.051,9.363 -63.076,9.363 z"
   id="path95"
   inkscape:connector-curvature="0"
   style="stroke:#000000" />
		<path
   d="m 830.76,681.271 c -30.068,8.032 -47.742,12.021 -53.074,12.021 L 639.527,659.274 c -0.665,3.99 -0.984,8.006 -0.984,11.995 0,24.683 20.347,48.407 61.054,71.068 34.031,18.697 58.713,28.033 74.086,28.033 94.74,-26.012 142.148,-52.37 142.148,-79.073 v -32.023 c -13.378,3.327 -41.718,10.667 -85.071,21.997 z"
   id="path97"
   inkscape:connector-curvature="0"
   style="stroke:#000000" />
	</g>
</g>
<g
   id="lively_spot"
   display="none"
   style="display:none">
	<g
   display="inline"
   id="g106"
   style="display:inline">
		<g
   id="g104">
			<path
   d="m 1023.625,625.56 c 0,64.122 -16.174,119.082 -48.5,164.88 -24.138,34.227 -69.495,76.654 -136.093,127.282 -106.176,80.511 -177.118,135.708 -212.826,165.603 L 425.686,934.349 C 358.601,884.694 311.785,840.581 285.249,802.011 250.977,752.356 233.852,694.5 233.852,628.445 c 0,-71.824 15.202,-131.614 45.605,-179.346 37.643,-59.292 93.621,-88.949 167.945,-88.949 79.629,0 139.226,36.681 178.803,110.032 28.956,-51.634 58.873,-84.447 89.763,-98.45 16.887,-7.714 46.33,-11.582 88.316,-11.582 74.312,0 130.539,26.524 168.668,79.55 33.775,46.77 50.673,108.72 50.673,185.86 z"
   id="path102"
   inkscape:connector-curvature="0"
   style="stroke:#000000" />
		</g>
	</g>
	<g
   display="inline"
   id="g122"
   style="display:inline">
		<g
   id="g120">
			<polygon
   points="-112.426,690.256 142.701,690.256 153.877,563.325 -112.426,563.325 "
   id="polygon108"
   style="stroke:#000000" />
			<polygon
   points="280.221,985.8 216.098,875.562 -1.316,1029.475 72.223,1133.162 "
   id="polygon110"
   style="stroke:#000000" />
			<polygon
   points="-49.547,249.628 184.346,351.358 245.268,239.234 1.068,133.162 "
   id="polygon112"
   style="stroke:#000000" />
			<polygon
   points="1378,690.256 1378,563.325 1111.857,563.325 1123.07,690.256 "
   id="polygon114"
   style="stroke:#000000" />
			<polygon
   points="1266.873,1029.475 1049.637,875.562 985.354,985.8 1193.547,1133.162 "
   id="polygon116"
   style="stroke:#000000" />
			<polygon
   points="1020.379,239.234 1081.389,351.358 1315.139,249.628 1264.488,133.162 "
   id="polygon118"
   style="stroke:#000000" />
		</g>
	</g>
</g>
<g
   id="memorial__x002F__site_of_conscience"
   display="none"
   style="display:none">
	<g
   display="inline"
   id="g129"
   style="display:inline">
		<path
   d="m 673.535,372.563 c -14.891,-54.681 -57.756,-122.982 -94.177,-176.32 -64.64,-94.69 -69.034,-59.44 -64.176,5.272 10.691,142.242 -84.291,268.202 -90.784,336.235 -7.113,74.425 22.2,153.852 101.213,196.501 h 83.661 c 82.392,-98.024 103.77,-216.88 64.263,-361.688 z M 518.746,535.579 c 21.628,-71.451 38.959,-123.446 38.959,-123.446 0,0 65.616,52.069 51.946,155.887 -10.813,82.29 -56.292,106.09 -56.292,106.09 0,0 -56.559,-66.178 -34.613,-138.531 z"
   id="path125"
   inkscape:connector-curvature="0"
   style="stroke:#000000" />
		<path
   d="M 525.611,734.252 H 439.17 l -0.251,24.14 -3.915,379.771 h 238.523 l 0.167,-403.91 h -64.422 -83.661 z m 99.156,355.129 H 484.29 l 3.159,-306.348 h 137.445 z"
   id="path127"
   inkscape:connector-curvature="0"
   style="stroke:#000000" />
	</g>
</g>
<g
   id="diverse_neighborhood"
   display="none"
   style="display:none">
	<g
   display="inline"
   id="g138"
   style="display:inline">
		<path
   d="m 451.903,430.588 c 0.162,-1.062 0.342,-2.117 0.525,-3.171 -0.734,0.354 -1.476,0.692 -2.216,1.035 z"
   id="path132"
   inkscape:connector-curvature="0"
   style="stroke:#000000" />
		<path
   d="m 361.691,950.562 c -16.223,10.791 -50.839,36.459 -73.908,12.562 -24.841,-25.738 1.795,-63.046 1.795,-63.046 0,0 202.385,-255.49 216.104,-272.916 9,-11.433 25.205,-22.234 39.562,-28.313 -55.952,-24.025 -95.147,-79.62 -95.147,-144.368 0,-8.124 0.617,-16.104 1.807,-23.895 l -1.691,-2.137 c 0.74,-0.342 1.482,-0.681 2.216,-1.035 8.766,-50.445 41.598,-92.633 86.24,-114.299 1.469,-8.605 2.244,-17.448 2.244,-26.474 0,-86.257 -69.918,-156.199 -156.151,-156.199 -86.281,0 -156.175,69.941 -156.175,156.199 0,62.688 36.901,116.703 90.172,141.562 -14.31,4.507 -32.097,11.877 -40.916,22.453 -16.15,19.361 -220.425,278.37 -220.425,278.37 0,0 -26.683,37.308 -1.818,63.069 23.094,23.92 57.71,-1.818 73.908,-12.586 16.222,-10.861 111.759,-103.424 111.759,-103.424 v 454.074 h 232.161 v -283.02 c -0.002,0 -95.515,92.562 -111.737,103.423 z"
   id="path134"
   inkscape:connector-curvature="0"
   style="stroke:#000000" />
		<path
   d="m 1149.199,729.028 c 0,0 -204.274,-259.009 -220.425,-278.37 -10.329,-12.387 -32.96,-20.375 -47.898,-24.519 55.482,-23.252 94.462,-78.057 94.462,-141.999 0,-85.03 -68.925,-153.979 -153.932,-153.979 -85.053,0 -153.955,68.949 -153.955,153.979 0,8.952 0.773,17.722 2.239,26.254 55.607,24.173 94.479,79.587 94.479,144.088 0,63.499 -37.671,118.196 -91.896,142.944 15.257,8.207 30.176,28.11 37.941,37.245 9.918,11.688 210.154,265.407 210.154,265.407 0,0 26.682,37.308 1.817,63.046 -23.093,23.896 -57.686,-1.771 -73.907,-12.562 C 832.055,939.701 736.542,847.138 736.542,847.138 v 283.023 H 965.35 V 676.088 c 0,0 95.539,92.562 111.759,103.424 16.199,10.768 50.814,36.506 73.885,12.586 24.887,-25.762 -1.795,-63.07 -1.795,-63.07 z"
   id="path136"
   inkscape:connector-curvature="0"
   style="stroke:#000000" />
	</g>
</g>
<g
   id="traditional_neighborhood"
   display="none"
   style="display:none">
	<g
   display="inline"
   id="g145"
   style="display:inline">
		<path
   d="M 1003.201,849.502 V 509.391 l 92.432,44.249 35.008,-68.472 C 1062.491,448.819 846.176,327.269 732.698,179.162 683.035,243.964 613.669,303.683 545.644,353.409 c 95.104,92.641 225.01,172.415 294.526,211.132 30.344,16.965 48.941,26.234 48.941,26.264 l 21.367,10.668 -77.449,151.429 -66.314,-31.714 V 942.254 H 1127.9 v -92.752 h -77.449 z"
   id="path141"
   inkscape:connector-curvature="0"
   style="stroke:#000000" />
		<path
   d="M 719.494,1025.212 V 646.217 l 92.432,44.189 35.037,-68.471 C 778.813,585.586 562.469,464.035 448.961,315.957 335.164,464.443 117.916,586.228 50.408,622.256 l 36.145,75.671 91.848,-44.015 v 371.3 H 131.18 83.316 v 92.752 h 737.062 v -92.752 h -53.664 z"
   id="path143"
   inkscape:connector-curvature="0"
   style="stroke:#000000" />
	</g>
</g>
<g
   id="traditional_way_of_life"
   display="none"
   style="display:none">
	<g
   display="inline"
   id="g152"
   style="display:inline">
		<path
   d="M 333.43,933.764 C 186.259,903.549 75.778,773.552 75.51,617.467 75.817,439.159 219.949,294.897 398.305,294.542 c 137.36,0.273 254.486,85.992 301.195,206.855 -40.809,27.242 -67.712,73.693 -67.712,126.376 0,83.871 68.072,151.896 151.928,151.896 83.951,0 151.848,-68.025 151.848,-151.896 0,-74.698 -53.939,-136.882 -125.109,-149.518 C 752.4,306.315 589.872,182.512 398.306,182.487 158.012,182.52 -36.561,377.318 -36.561,617.467 c 0.049,240.18 194.572,434.946 434.865,435.011 13.374,0 26.633,-0.616 39.738,-1.815 C 405.74,1022.535 369.317,984.455 333.43,933.764 Z"
   id="path148"
   inkscape:connector-curvature="0"
   style="stroke:#000000" />
		<path
   d="m 783.055,182.488 c -15.102,0 -30.051,0.782 -44.794,2.295 33.084,27.322 71.044,65.071 108.746,116.212 147.607,29.873 258.658,160.093 258.941,316.471 -0.322,178.242 -144.602,322.57 -322.893,322.859 -131.012,-0.212 -243.545,-78.123 -294.188,-190.149 37.556,-27.655 61.915,-72.186 61.915,-122.403 0,-83.808 -67.928,-151.864 -151.848,-151.864 -83.871,0 -151.912,68.057 -151.912,151.864 0,77.098 57.497,140.799 131.931,150.586 63.923,160.548 220.684,274.044 404.103,274.118 240.26,-0.097 434.898,-194.831 434.945,-435.011 C 1217.953,377.254 1023.314,182.52 783.055,182.488 Z"
   id="path150"
   inkscape:connector-curvature="0"
   style="stroke:#000000" />
	</g>
</g>
<g
   id="eco_club__x002F__organization"
   display="none"
   style="display:none">
	<g
   display="inline"
   id="g159"
   style="display:inline">
		<path
   d="m 761.461,133.162 c 0,0 -62.602,55.71 -170.287,57.872 C 483.493,188.873 421.006,133.162 421.006,133.162 L -7,259.754 35.906,496.956 210.342,475.548 v 657.614 h 379.984 1.711 380.012 V 475.548 l 174.525,21.408 42.891,-237.202 z m -44.584,564.52 C 682.99,785.207 606.182,857.456 526.753,882.66 c -26.613,58.716 -3.452,207.361 -3.452,207.361 l -16.203,3.951 C 469.259,1009.76 465.452,891.752 465.075,866.309 426.013,807.291 349.112,660.001 465.403,506.333 540.641,409.259 644.512,387.674 684.868,313.835 c 73.131,94.775 71.773,280.049 32.009,383.847 z"
   id="path155"
   inkscape:connector-curvature="0"
   style="stroke:#000000" />
		<path
   d="m 480.53,793.193 c 8.285,39.042 61.969,42.758 45.072,-38.629 C 515.518,705.938 533.563,556.168 654.377,428.543 487.606,547.941 476.106,742.297 480.53,793.193 Z"
   id="path157"
   inkscape:connector-curvature="0"
   style="stroke:#000000" />
	</g>
</g>
<g
   id="green_school"
   display="none"
   style="display:none">
	<g
   display="inline"
   id="g168"
   style="display:inline">
		<path
   d="m 756.795,331.552 c 126.588,56.405 155.432,-77.622 155.432,-77.622 0,0 -97.77,10.702 -150.232,-46.634 -87.463,-95.53 -155.361,-46.611 -155.361,-46.611 l 2.611,189.031 c -10e-4,0 59.202,-57.523 147.55,-18.164 z"
   id="path162"
   inkscape:connector-curvature="0"
   style="stroke:#000000" />
		<path
   d="m 912.285,672.469 75.304,2.236 -374.285,-287.052 -360.866,282.264 69.339,2.237 4.474,388.021 H 242 v 72.322 h 745.589 v -72.322 H 912.285 Z M 671.594,798.336 c -22.966,59.365 -75.064,108.363 -128.933,125.423 -18.042,39.805 -2.341,140.602 -2.341,140.602 l -10.982,2.704 c -25.659,-57.136 -28.234,-137.201 -28.49,-154.397 -26.485,-39.999 -78.625,-139.871 0.205,-244.113 51.018,-65.801 121.482,-80.444 148.834,-130.482 49.595,64.238 48.685,189.868 21.707,260.263 z"
   id="path164"
   inkscape:connector-curvature="0"
   style="stroke:#000000" />
		<path
   d="m 511.312,863.088 c 5.643,26.465 42.018,29.006 30.592,-26.186 -6.855,-32.971 5.387,-134.539 87.299,-221.068 -113.086,80.957 -120.875,212.744 -117.891,247.254 z"
   id="path166"
   inkscape:connector-curvature="0"
   style="stroke:#000000" />
	</g>
</g>
<g
   id="eco_information"
   display="none"
   style="display:none">
	<g
   display="inline"
   id="g175"
   style="display:inline">
		<path
   d="M 657.509,482.529 C 740.579,409.647 827.6,247.34 807.225,130.162 737.533,176.386 636.183,147.228 525.05,197.688 313.33,296.896 359.078,521.017 361.935,544.581 c 85.997,36.275 212.267,10.45 295.574,-62.052 z M 405.421,456.966 C 425.106,410.171 525.265,244.556 727.25,216.898 561.872,273.119 476.613,396.485 462.938,443.899 c -22.837,79.356 -68.335,51.246 -57.517,13.067 z"
   id="path171"
   inkscape:connector-curvature="0"
   style="stroke:#000000" />
		<path
   d="m 649.607,998.346 c 0,-34.68 0,-209.055 0,-233.309 0,-24.302 -3.476,-69.406 31.228,-69.406 34.656,0 41.606,0 41.606,0 v -55.483 c -49.733,0 -113.593,0 -167.841,0 -1.045,0 -2.101,0 -3.153,0 -54.236,0 -118.084,0 -167.817,0 v 55.483 c 0,0 6.938,0 41.618,0 34.68,0 31.216,45.104 31.216,69.406 0,24.254 0,198.629 0,233.309 0,58.982 -114.464,72.859 -114.464,72.859 v 58.957 h 209.447 3.153 209.471 v -58.957 c 0,0 -114.464,-13.877 -114.464,-72.859 z"
   id="path173"
   inkscape:connector-curvature="0"
   style="stroke:#000000" />
	</g>
</g>
<g
   id="eco_expert"
   display="none"
   style="display:none">
	<g
   display="inline"
   id="g182"
   style="display:inline">
		<path
   d="M 990.986,779.104 C 990.682,651.536 961.442,514.069 887.24,427.032 l -20.506,-23.848 -13.569,28.354 c -22.025,46.329 -66.784,80.505 -121.011,120.454 -53.949,40 -116.176,85.873 -166.91,158.934 -11.928,17.598 -22.242,35.115 -31.113,52.494 0,-5.129 0,-10.582 0,-16.443 0.249,-25.191 -10.258,-48.033 -29.012,-62.512 0,-30.41 0.003,-141.657 0.025,-164.118 -0.178,-13.519 -0.025,-29.392 -7.772,-45.063 -7.595,-16.278 -27.088,-27.848 -50.126,-27.088 -22.354,-0.709 -39.822,13.924 -45.924,28.987 -6.708,14.962 -7.266,30.05 -7.366,41.265 0,8.926 0,39.452 0,70.888 -6.536,-2.849 -14.164,-4.872 -22.962,-5.243 -16.422,-0.198 -29.592,4.893 -38.41,12.001 -8.445,-5.725 -19.859,-10.456 -34.754,-10.735 -18.784,-0.228 -33.161,8.678 -41.335,17.913 -8.664,-4.774 -20.112,-7.965 -34.057,-7.862 -21.695,-0.38 -37.923,9.797 -45.493,20.683 -7.822,10.734 -8.81,20.354 -9.062,22.127 l -0.102,1.013 v 0.886 c 0,0.102 0,89.848 0,110.15 -0.073,13.547 4.565,27.269 14.379,37.441 0.19,18.372 1.637,45.636 10.912,73.014 8.709,26.05 25.797,53.163 55.872,69.188 v 40.911 h -24.506 c 3.19,100.201 -7.113,259.945 191.162,292.604 15.038,80.277 32.607,139.745 32.607,139.745 l 494.703,-2.684 c 0,0 60.47,-212.101 -76.233,-259.29 42.399,-47.518 76.426,-104.445 96.79,-165.818 l -19.544,-6.354 19.594,6.304 c 17.9,-55.519 27.419,-124.305 27.469,-196.226 z M 433.828,492.145 c 3.646,-6 3.849,-7.443 13.418,-8.152 14.81,0.759 15.316,3.291 18.278,7.595 2.785,4.912 4,16.152 3.822,28.759 0,19.332 0,104.427 0,147.155 -12.075,-3.138 -25.342,-4.648 -39.588,-4.694 -0.031,-29.327 -0.031,-127.162 -0.031,-144.36 -0.05,-9.089 1.088,-20.152 4.101,-26.303 z M 370.994,619.89 c 5.266,-0.151 11.493,3.038 16.633,7.493 2.48,2.127 4.582,4.405 5.949,6.025 0.14,0.166 0.262,0.314 0.38,0.459 0,12.027 0,22.252 0,28.934 -11.377,0 -17.244,0 -19.114,0 -1.468,-0.127 -4.329,-0.279 -8.101,-0.279 -3.883,0.043 -8.724,0.189 -14.127,0.814 0,-12.69 0,-23.354 0,-30.068 1.287,-2.715 1.878,-5.727 1.693,-8.757 1.526,-1.904 5.242,-4.004 16.687,-4.621 z m -91.923,13.949 c 2.784,-5.165 5.873,-12.582 18.759,-12.708 8,0.075 13.189,3.139 17.418,6.708 0.567,0.503 1.093,1.009 1.584,1.507 -0.005,7.482 0.002,25.385 -0.008,46.688 -10.79,8.227 -19.786,22.045 -19.349,39.475 -0.526,19.442 7.997,35.282 19.358,45.122 -0.016,13.01 -0.013,23.001 0.009,27.357 0.011,2.125 0.077,4.242 0.196,6.35 -3.674,4.824 -11.941,9.933 -21.689,9.752 -11.646,-0.962 -15.494,-4.684 -16.405,-16.102 0,-18.633 0,-134.58 0.025,-153.871 0.026,-0.051 0.077,-0.178 0.102,-0.278 z m -75.518,8.38 c 1.52,-2.229 -0.126,-10.279 18.886,-11.038 13.367,0.202 17.494,3.646 19.569,5.468 0.492,0.467 0.862,0.904 1.14,1.284 0,11.58 0,37.138 0,64.159 0,20.298 0,41.341 0,57.811 -5.02,4.589 -15.396,9.931 -16.937,9.023 -19.24,-1.418 -21.291,-6.861 -22.658,-18.658 0,-18.456 0,-94.43 0,-108.049 z m 81.213,328.603 -0.023,-64.455 -11.216,-4.48 c -25.341,-10.254 -38.506,-29.545 -46.581,-52.684 -5.112,-14.924 -7.398,-30.913 -8.365,-44.868 2.385,0.231 4.809,0.362 7.276,0.362 0.127,0 0.228,0 0.354,0 6.677,-0.355 12.783,-1.759 18.364,-3.918 2.17,9.404 6.774,17.974 13.509,24.551 9.595,9.52 22.987,14.557 36.962,14.557 0.101,0 0.202,0 0.304,0 12.855,-0.083 24.588,-3.613 34.275,-9.61 8.939,10.5 23.195,15.939 37.875,15.939 0.354,0 0.709,0 1.063,0 1.013,-0.05 1.696,-0.05 2.202,-0.05 13.765,-0.613 23.876,-1.645 32.9,-5.607 7.121,9.248 16.368,17.406 28.618,22.872 9.063,3.874 19.569,-0.304 23.442,-9.392 3.899,-9.089 -0.278,-19.57 -9.366,-23.469 -8.402,-3.263 -15.842,-12.312 -21.406,-23.523 -0.072,-4.679 -1.955,-8.961 -5.019,-12.137 -0.42,-1.236 -0.82,-2.48 -1.195,-3.731 -2.684,-8.759 -4.38,-17.316 -5.291,-23.519 -0.937,-6.254 -1.114,-9.747 -1.14,-9.747 l -1.013,-16.81 H 394.46 c -0.025,0 0,0 -20.278,0 -9.291,0.102 -21.721,-0.987 -29.341,-4.811 -7.342,-4.354 -10.836,-6.379 -11.57,-20.784 0.428,-6.15 1.424,-8.21 4.65,-10.401 3.272,-0.592 6.227,-2.076 8.62,-4.194 6.569,-1.986 14.854,-2.686 20.199,-2.645 3.746,0 5.646,0.253 5.646,0.253 l 0.86,0.051 h 0.937 c 0.025,0 14.354,0 55.088,0 24.86,-0.051 42.733,5.62 53.215,13.671 10.404,8.151 15.569,18.024 15.873,34.733 0,34.785 0,55.519 0,75.797 0.152,6.582 -3.24,27.544 -9.949,43.645 -3.24,8.127 -7.367,15.24 -11.089,19.24 -3.949,4.203 -5.975,4.658 -7.493,4.684 h -17.873 v 80.48 z m 67.836,-195.374 c 8.219,1.251 15.713,1.375 21.582,1.401 1.62,0 3.114,0 4.507,0 1.189,7.013 3.012,15.671 5.873,24.911 0.713,2.224 1.485,4.508 2.321,6.826 -3.156,0.756 -8.72,1.597 -16.752,1.832 -0.38,0 -1.139,0.025 -1.569,0.025 -9.089,-0.329 -10.405,-2.025 -12.076,-3.925 -1.746,-2.075 -3.975,-8.227 -3.873,-18.531 -0.013,-2.494 -0.013,-6.841 -0.013,-12.539 z M 924.404,962.67 c -43.645,134.758 -166.226,248.123 -281.515,269.414 -29.013,-35.594 -113.366,-144.858 -113.29,-284.604 0.076,-65.139 18,-137.062 69.543,-213.314 46.151,-66.479 103.442,-109.162 157.467,-149.111 44.632,-33.215 87.771,-64.505 117.365,-107.847 51.721,75.974 76.151,192.655 75.873,301.896 0.051,68.176 -9.24,133.491 -25.494,183.541 z"
   id="path178"
   inkscape:connector-curvature="0"
   style="stroke:#000000" />
		<path
   d="m 623.979,1118.364 c 14.328,53.417 88.783,54.581 59.543,-56.733 C 666.054,995.125 680.054,786.647 837.824,601.333 615.877,778.622 614.13,1048.289 623.979,1118.364 Z"
   id="path180"
   inkscape:connector-curvature="0"
   style="stroke:#000000" />
	</g>
</g>
<g
   id="independent__x002F__eco_media"
   display="none"
   style="display:none">
	<g
   display="inline"
   id="g197"
   style="display:inline">
		<path
   d="m 763.463,243.373 c -11.117,10.589 -11.52,28.373 -0.754,39.289 48.696,51.136 75.509,117.993 75.509,188.522 0,67.234 -24.7,131.803 -69.473,181.807 -10.413,11.395 -9.457,29.152 2.062,39.415 11.47,10.288 29.178,9.532 39.44,-1.962 54.079,-60.342 83.86,-138.191 83.86,-219.26 0,-85.018 -32.397,-165.708 -91.004,-226.956 -10.764,-11.244 -28.372,-11.596 -39.64,-0.855 z"
   id="path185"
   inkscape:connector-curvature="0"
   style="stroke:#000000" />
		<path
   d="m 948.137,141.779 c -10.664,-11.118 -28.322,-11.545 -39.591,-0.905 -11.067,10.665 -11.47,28.322 -0.754,39.49 74.453,77.975 115.553,180.071 115.553,287.802 0,102.875 -37.881,201.476 -106.397,277.967 -10.312,11.469 -9.307,29.102 2.163,39.515 11.521,10.187 29.178,9.332 39.49,-2.214 77.773,-86.702 120.584,-198.658 120.584,-315.268 0,-122.244 -46.634,-238.2 -131.048,-326.387 z"
   id="path187"
   inkscape:connector-curvature="0"
   style="stroke:#000000" />
		<path
   d="m 275.846,460.418 c 0,-67.209 24.726,-131.751 69.523,-181.806 10.413,-11.369 9.432,-29.127 -2.113,-39.44 -11.495,-10.263 -29.127,-9.508 -39.415,1.962 -54.079,60.367 -83.86,138.241 -83.86,219.284 0,85.068 32.372,165.709 91.029,226.982 10.715,11.268 28.372,11.57 39.591,0.854 11.117,-10.614 11.57,-28.372 0.805,-39.289 -48.722,-51.16 -75.56,-117.967 -75.56,-188.547 z"
   id="path189"
   inkscape:connector-curvature="0"
   style="stroke:#000000" />
		<path
   d="m 118.865,463.437 c 0,-102.825 37.855,-201.426 106.397,-277.941 10.288,-11.47 9.307,-29.127 -2.214,-39.541 -11.494,-10.162 -29.127,-9.307 -39.439,2.264 C 105.836,234.896 63,346.877 63,463.437 c 0,122.244 46.659,238.25 131.073,326.437 10.664,11.068 28.297,11.521 39.565,0.855 11.067,-10.615 11.47,-28.322 0.755,-39.49 C 159.965,673.264 118.865,571.143 118.865,463.437 Z"
   id="path191"
   inkscape:connector-curvature="0"
   style="stroke:#000000" />
		<path
   d="m 559.987,190.3 c -6.378,3.436 -179.052,98.015 -179.052,268.811 0,138.528 77.102,222.531 130.297,264.332 8.542,96.528 34.496,389.634 35.084,394.401 0.704,5.711 4.201,15.318 11.848,15.318 7.647,0 8.904,-9.356 9.759,-15.318 0.679,-4.873 24.014,-285.677 32.511,-388.034 C 653.473,690.498 739.065,605.062 739.065,459.111 739.064,288.315 566.367,193.735 559.987,190.3 Z m -1.572,63.184 c 10.137,0 17.582,110.699 17.582,229.321 0,110.749 -6.564,218.832 -19.771,218.832 -13.18,0 -19.77,-113.365 -19.77,-218.832 10e-4,-118.622 11.848,-229.321 21.959,-229.321 z"
   id="path193"
   inkscape:connector-curvature="0"
   style="stroke:#000000" />
		<path
   d="m 559.799,190.199 c 0,0 0.068,0.037 0.188,0.101 0.12,-0.064 0.188,-0.101 0.188,-0.101 z"
   id="path195"
   inkscape:connector-curvature="0"
   style="stroke:#000000" />
	</g>
</g>
<g
   id="environmental_education"
   display="none"
   style="display:none">
	<g
   display="inline"
   id="g202"
   style="display:inline">
		<path
   d="m 957.479,151.289 -7.427,-18.126 -13.606,14.101 c -22.163,23.022 -55.344,34.416 -95.292,47.316 -39.771,12.994 -85.593,27.848 -129.979,61.041 -49.471,37.83 -77.719,81.592 -92.031,124.693 -18.042,54.17 -14.562,106.955 -6.557,146.769 -1.352,8.655 -12.114,69.188 -46.183,51.901 l 0.644,-432.52 -18.303,-0.094 -259.616,-1.224 -1.129,750.422 1.896,3.813 c 0,0.047 22.646,46.305 47.54,95.857 25.199,49.976 51.329,101.317 61.888,117.02 8.274,12.5 20.786,20.903 33.815,20.903 0.153,0 0.307,0 0.447,0 21.528,-1.671 29.649,-13.63 34.676,-21.869 4.143,-8.286 95.856,-209.698 96.01,-210.005 l 1.659,-3.602 0.232,-156.168 c 11.985,-70.432 58.386,-124.248 105.953,-135.627 79.666,1.629 168.716,-43.813 222.299,-115.432 l -10.322,-7.604 10.357,7.627 c 21.516,-29.332 40.713,-68.126 54.92,-110.617 24.988,-75.445 34.817,-162.521 8.109,-228.575 z m -630.461,740.222 200.364,1.976 c -10.777,23.654 -44.922,98.567 -68.465,150.08 l -55.692,-0.312 c -10.176,-19.554 -21.874,-42.549 -32.891,-64.541 -18.481,-36.793 -35.731,-71.749 -43.316,-87.203 z M 700.771,485.305 c -10.229,77.118 -56.509,57.251 -51.766,20.198 C 660.822,459.151 731.056,290.978 915.318,237 769.108,312.447 706.903,439.235 700.771,485.305 Z"
   id="path200"
   inkscape:connector-curvature="0"
   style="stroke:#000000" />
	</g>
</g>
<g
   id="eco_certification"
   display="none"
   style="display:none">
	<g
   display="inline"
   id="g207"
   style="display:inline">
		<path
   d="m 967,812.926 -172.181,-132.291 105.935,2.206 -82.747,-120.615 128.221,-70.483 -131.995,-63.068 75.804,-125.14 -145.824,11.324 3.046,-146.222 -120.593,82.669 -70.451,-128.143 -63.166,131.851 -125.097,-75.76 11.302,145.825 -146.244,-3.024 82.703,120.528 -128.177,70.461 131.94,63.199 -75.805,125.009 115.284,-8.867 -156.884,120.519 56.577,310.236 283.475,-305.75 35.381,64.408 37.134,-77.619 295.739,318.982 z m -681.796,219.201 -36.787,-201.342 140.36,-107.805 -2.361,113.322 120.648,-82.734 13.55,24.666 z M 574.9,788.976 l -2.394,-4.355 6.378,-6.88 -20.723,-19.223 -36.495,-66.405 -91.124,62.493 2.329,-110.439 -110.13,8.521 57.229,-94.502 -99.601,-47.703 96.819,-53.266 -62.46,-91.102 110.438,2.34 -8.554,-110.13 94.479,57.261 47.725,-99.689 53.178,96.819 19.315,-13.201 71.809,-49.226 -2.317,110.438 110.174,-8.543 -57.262,94.523 99.634,47.682 -96.819,53.199 62.46,91.146 -110.438,-2.318 8.51,110.131 -94.446,-57.262 z m 59.441,-25.977 6.286,-13.14 125.185,75.848 -9.416,-121.094 164.214,126.172 -36.743,201.342 z"
   id="path205"
   inkscape:connector-curvature="0"
   style="stroke:#000000" />
	</g>
</g>
<g
   id="pollution_monitor"
   display="none"
   style="display:none">
	<g
   display="inline"
   id="g214"
   style="display:inline">
		<path
   d="m 892.666,688.843 c -18.575,0 -33.623,-15.047 -33.623,-33.557 0,-18.588 15.048,-33.635 33.623,-33.635 h 83.855 C 973.85,547.046 950.126,477.84 911.1,419.79 l -67.573,38.995 c -5.298,3.071 -11.09,4.53 -16.805,4.53 -11.61,-0.027 -22.909,-6.041 -29.105,-16.792 -9.242,-16.063 -3.749,-36.655 12.314,-45.923 l 58.412,-33.729 C 806.059,302.262 721.516,259.257 626.992,250.145 v 65.533 c 0,18.484 -15.034,33.583 -33.583,33.583 -18.601,0 -33.622,-15.099 -33.622,-33.583 v -66.132 c -99.57,7.848 -188.51,53.255 -252.675,122.068 l 50.199,28.986 c 16.062,9.268 21.556,29.859 12.248,45.923 -6.195,10.751 -17.468,16.792 -29.066,16.792 -5.701,0 -11.48,-1.484 -16.778,-4.53 L 265.34,425.097 c -36.959,56.942 -59.371,124.208 -61.987,196.554 h 71.186 c 18.574,0 33.622,15.047 33.622,33.635 0,18.51 -15.048,33.557 -33.622,33.557 h -67.662 c 17.411,124.111 93.479,229.269 199.309,286.599 30.433,-40.681 73.426,-71.429 123.232,-86.493 L 735.944,525.458 669.503,889.055 c 46.63,14.182 87.262,42.116 117.187,79.084 99.075,-58.696 169.683,-160.282 186.361,-279.295 h -80.385 z"
   id="path210"
   inkscape:connector-curvature="0"
   style="fill:#ffffff" />
		<path
   d="m 590,135.162 c -276.164,0.052 -500,223.888 -500.052,500 0.052,276.19 223.888,500 500.052,500 276.111,0 499.948,-223.81 499.948,-500 H 1090 C 1089.948,359.05 866.111,135.214 590,135.162 Z M 786.69,968.138 C 756.765,931.17 716.133,903.236 669.503,889.054 L 735.944,525.457 529.418,888.948 C 479.612,904.012 436.619,934.76 406.186,975.441 300.356,918.111 224.288,812.954 206.877,688.842 h 67.662 c 18.574,0 33.622,-15.047 33.622,-33.557 0,-18.588 -15.048,-33.635 -33.622,-33.635 h -71.186 c 2.617,-72.345 25.028,-139.612 61.987,-196.554 l 58.375,33.688 c 5.298,3.046 11.077,4.53 16.778,4.53 11.599,0 22.871,-6.041 29.066,-16.792 9.308,-16.063 3.814,-36.655 -12.248,-45.923 L 307.112,371.613 C 371.277,302.8 460.217,257.393 559.787,249.545 v 66.132 c 0,18.484 15.021,33.583 33.622,33.583 18.549,0 33.583,-15.099 33.583,-33.583 v -65.533 c 94.524,9.112 179.066,52.117 241.351,116.726 l -58.412,33.729 c -16.063,9.268 -21.557,29.859 -12.314,45.923 6.196,10.751 17.495,16.765 29.105,16.792 5.715,0 11.507,-1.459 16.805,-4.53 L 911.1,419.79 c 39.026,58.05 62.75,127.256 65.421,201.861 h -83.855 c -18.575,0 -33.623,15.047 -33.623,33.635 0,18.51 15.048,33.557 33.623,33.557 h 80.385 C 956.373,807.855 885.765,909.441 786.69,968.138 Z"
   id="path212"
   inkscape:connector-curvature="0"
   style="stroke:#000000" />
	</g>
</g>
<g
   id="community_center"
   display="none"
   style="display:none">
	<g
   display="inline"
   id="g219"
   style="display:inline">
		<path
   d="m 1148.078,1040.928 v 88.234 H 152 v -88.234 H 275.529 V 516.418 H 153.96 l 496.079,-387.255 496.078,387.255 h -120.588 v 524.51 z m -245.098,-450 c -27.451,-47.703 -68.964,-71.569 -124.509,-71.569 -33.992,0 -63.404,12.745 -88.235,38.235 -22.228,22.228 -35.631,47.718 -40.196,76.471 -3.921,-28.753 -17.003,-54.243 -39.215,-76.471 -25.491,-25.49 -55.24,-38.235 -89.216,-38.235 -55.561,0 -97.059,23.866 -124.509,71.569 -19.608,33.991 -27.789,73.529 -24.51,118.628 3.262,50.336 17.157,93.306 41.667,128.921 24.51,35.631 57.353,67.815 98.529,96.568 l 137.255,96.078 137.255,-96.078 c 41.176,-28.753 74.02,-60.938 98.529,-96.568 24.51,-35.615 38.389,-78.585 41.667,-128.921 3.261,-45.099 -4.904,-84.637 -24.512,-118.628 z"
   id="path217"
   inkscape:connector-curvature="0"
   style="stroke:#000000" />
	</g>
</g>
<g
   id="public_library"
   display="none"
   style="display:none">
	<g
   display="inline"
   id="g224"
   style="display:inline">
		<path
   d="m 854.506,118.16 c -136.004,0 -248.459,72.625 -284.891,107.703 C 494.156,151.732 407.65,129.5 314.287,129.5 224.252,129.5 151.226,154.72 91,234.803 V 1007.4 c 0,14.563 8.904,30.773 26.738,48.652 17.832,17.881 34.029,26.82 48.545,26.82 5.281,0 9.916,-1.67 13.893,-4.988 l 54.404,-65.637 c 37.277,-50.793 89.281,-56.416 132.875,-56.416 49.605,0 108.338,59.027 176.176,152.214 10.764,14.774 77.578,12.963 87.271,-2.8 57.791,-93.916 84.316,-158.896 129.006,-158.896 46.887,0 114.9,4.917 181.35,130.546 5.271,9.952 21.457,5.977 32.701,5.977 50.205,0 75.332,-38.418 75.332,-115.207 0,-10.588 0,-21.81 0,-33.761 V 249.694 C 1041.314,202.031 945.176,118.16 854.506,118.16 Z M 546.455,880.007 C 507.377,838.953 429.26,798.842 371.008,798.842 c -57.592,0 -150.473,30.09 -200.795,71.119 V 256.846 c 34.43,-33.125 109.773,-54.204 148.191,-54.204 48.299,0 169.965,13.434 228.463,128.876 z m 426.811,-10.046 c -50.322,-41.029 -143.215,-71.119 -200.807,-71.119 -58.24,0 -136.357,40.111 -175.436,81.165 l 4.152,-548.489 C 659.65,216.076 776.798,202.642 825.097,202.642 c 38.395,0 113.738,21.079 148.168,54.204 v 613.115 z"
   id="path222"
   inkscape:connector-curvature="0"
   style="stroke:#000000" />
	</g>
</g>
<g
   id="significant_organization__x002F__agency"
   display="none"
   style="display:none">
	<g
   display="inline"
   id="g231"
   style="display:inline">
		<path
   d="M 1020.346,986.432 V 546.026 H 1184 L 640.946,122.15 97.983,546.026 h 164.51 V 986.431 H 146.369 v 135.73 h 989.168 v -135.73 h -26.364 -88.827 z m -470.934,-199.6 c 0,-12.723 2.988,-24.678 7.996,-35.51 11.202,-31.423 40.837,-48.642 76.13,-48.693 29.66,0.052 55.284,10.68 69.437,34.438 10.168,14 16.376,31.117 16.376,49.766 0,32.752 -18.726,60.828 -45.844,75.006 v 26.825 l 10.358,0.255 c 29.559,0.716 50.941,14.485 66.678,34.897 15.559,20.284 23.811,47.364 23.733,69.642 l 3.082,75.926 h -267.71 l 0.229,-75.926 c -0.115,-21.051 7.191,-47.978 21.587,-68.058 14.639,-20.208 34.322,-33.772 63.421,-34.386 l 6.54,-0.103 V 865.16 c -30.579,-12.877 -52.013,-43.072 -52.013,-78.328 z m 261.243,206.625 h 0.052 z m 272.179,75.926 H 941.501 l 0.364,-293.944 c 0,-57.991 -37.248,-94.192 -88.903,-107.144 v -22.993 c 31.729,-19.007 53.163,-53.368 53.163,-93.017 0,-60.061 -48.667,-108.754 -108.754,-108.754 -60.035,0 -108.729,48.693 -108.729,108.754 0,44.938 27.284,83.462 66.167,100.068 v 18.291 c -15.609,4.905 -29.43,12.34 -41.258,21.817 -20.975,-19.595 -49.038,-31.653 -80.014,-31.653 -27.144,0 -52.064,9.273 -71.94,24.756 -11.969,-7.613 -25.483,-13.541 -40.415,-17.27 v -22.993 c 31.716,-19.007 53.188,-53.368 53.188,-93.017 0,-60.061 -48.705,-108.754 -108.754,-108.754 -60.073,0 -108.74,48.693 -108.74,108.754 0,44.938 27.271,83.462 66.141,100.068 v 18.291 c -46.866,14.766 -79.681,50.276 -79.681,104.794 l 0.036,293.944 H 199.085 v -30.197 H 315.209 V 493.322 h -64.021 l 389.758,-304.29 389.771,304.29 H 967.59 v 545.863 h 115.243 v 30.198 z"
   id="path227"
   inkscape:connector-curvature="0" />
		
			<line
   x1="810.65503"
   y1="993.45697"
   x2="810.70697"
   y2="993.45697"
   id="line229"
   style="stroke:#58595b;stroke-width:0;stroke-linecap:round;stroke-linejoin:round" />
	</g>
</g>
<g
   id="volunteer_site"
   display="none"
   style="display:none">
	<path
   display="inline"
   d="m 903.715,836.912 c -16.951,-72.041 -133.734,-82.731 -162.43,-88.162 -1.662,-0.318 -3.547,-0.636 -5.26,-0.979 v -29.43 c 59.681,-22.057 102.229,-79.447 102.229,-146.797 0,-86.449 -70.061,-156.51 -156.485,-156.51 -86.449,0 -156.485,70.061 -156.485,156.51 0,60.095 33.868,112.255 83.563,138.466 v 21.42 C 566.16,727.173 524.721,716.655 507.035,669.002 485.9,612.176 432.474,416.747 418.653,375.234 c 0,0 27.618,-22.236 33.415,-65.804 l 33.954,-50.38 c 0,0 9.834,-16.586 -2.055,-25.074 -10.567,-7.522 -24.193,-0.379 -31.825,7.926 -15.143,16.659 -18.567,41.867 -39.972,34.822 -9.932,-4.893 -13.038,-26.321 -18.493,-44.448 -6.116,-20.34 -11.889,-67.846 -13.039,-76.763 -1.198,-8.904 -4.893,-19.533 -16.12,-18.261 -10.396,1.198 -13.895,7.632 -12.647,23.227 2.227,27.581 0.611,57.132 1.884,67.663 1.957,15.937 -13.772,27.446 -26.37,12.035 -7.363,-9.026 -25.294,-51.102 -31.802,-62.647 -4.647,-8.281 -13.209,-16.892 -22.896,-12.048 -6.947,3.485 -6.507,10.506 -1.076,24.608 8.636,22.335 22.334,63.321 25.245,70.048 2.936,6.715 -5.675,15.045 -13.797,10.299 -9.785,-5.712 -38.234,-33.721 -41.121,-38.124 -2.911,-4.428 -13.136,-12.99 -19.961,-7.999 -8.709,6.311 -5.187,15.179 1.639,23.753 12.183,15.228 34.443,40.717 38.504,47.347 7.266,11.889 16.781,25.171 0,22.162 -12.818,-2.274 -37.061,-6.188 -41.929,-7.191 -4.868,-1.027 -17.955,2.152 -19.79,8.391 -1.81,6.286 2.544,14.163 12.599,17.393 20.059,6.409 77.276,17.368 77.276,17.368 0,0 16.487,36.547 42.54,38.455 l 2.13,8.099 c 9.887,48.881 103.327,447.877 103.327,447.877 l 64.727,282.194 318.987,1.179 5.432,-198.879 48.582,198.7 h 54 c -10e-4,0 -5.1,-196.792 -26.286,-294.25 z"
   id="path234"
   inkscape:connector-curvature="0"
   style="display:inline;stroke:#000000" />
</g>
<g
   id="online_resource"
   display="none"
   style="display:none">
	<g
   display="inline"
   id="g239"
   style="display:inline">
		<path
   d="M 979.431,272.731 C 1077.134,370.448 1126,488.264 1126,626.162 c 0,137.913 -48.866,255.729 -146.569,353.432 -97.717,97.702 -215.533,146.568 -353.431,146.568 -137.914,0 -255.729,-48.866 -353.431,-146.568 C 174.851,881.891 126,764.075 126,626.162 126,488.264 174.851,370.448 272.569,272.731 370.271,175.028 488.086,126.162 626,126.162 c 137.898,0 255.714,48.866 353.431,146.569 z M 386.784,826.162 c -15.043,-54.902 -22.886,-113.066 -23.529,-174.51 -53.6,-14.369 -106.863,-35.938 -159.804,-64.706 -1.317,13.726 -1.96,26.809 -1.96,39.216 0,35.294 4.243,69.944 12.745,103.922 29.411,36.61 86.917,68.627 172.548,96.078 z M 212.274,533.024 c 46.4,27.451 96.722,49.357 150.98,65.687 3.922,-66.667 15.349,-129.733 34.313,-189.215 C 355.073,397.088 320.116,382.045 292.665,364.398 252.792,414.735 226,470.939 212.274,533.024 Z m 279.412,495.099 C 455.733,990.209 426.643,942.17 404.431,884.006 344.29,867.017 292.666,846.107 249.53,821.261 302.471,923.221 383.185,992.17 491.686,1028.123 Z M 507.373,219.3 c -69.286,20.266 -129.412,55.882 -180.392,106.862 22.871,13.726 52.604,25.49 89.216,35.294 24.172,-57.506 54.564,-104.901 91.176,-142.156 z m -60.785,201.96 c -19.607,60.142 -30.729,123.867 -33.333,191.177 60.784,15.043 123.192,23.208 187.255,24.51 V 437.927 C 545.608,436.625 494.291,431.064 446.588,421.26 Z m -1.961,420.589 c 52.283,12.423 104.243,19.607 155.882,21.568 v -175.49 c -64.062,-1.961 -126.471,-9.804 -187.255,-23.529 2.605,63.403 13.067,122.548 31.373,177.451 z M 600.51,208.515 c -55.561,28.768 -100.659,83.67 -135.294,164.706 41.819,7.844 86.917,12.424 135.294,13.726 z M 466.196,897.731 c 34.636,75.811 79.412,124.83 134.314,147.059 V 914.396 c -43.796,-1.959 -88.572,-7.505 -134.314,-16.665 z M 651.49,386.947 c 46.401,-1.302 90.518,-5.882 132.353,-13.726 C 749.851,294.147 705.734,239.888 651.49,210.476 Z m 0,249.999 c 62.745,-1.302 123.852,-9.145 183.333,-23.529 -2.62,-67.969 -13.726,-132.016 -33.333,-192.157 -47.059,9.804 -97.06,15.365 -150,16.667 z m 151.961,205.883 c 18.291,-54.902 28.753,-114.048 31.373,-177.451 -60.141,13.082 -121.247,20.588 -183.333,22.549 v 175.49 c 50.321,-1.961 100.979,-8.824 151.96,-20.588 z m -21.569,55.882 c -44.455,9.161 -87.914,14.384 -130.393,15.686 v 129.412 C 704.431,1020.28 747.89,971.904 781.882,898.711 Z M 925.019,325.182 C 872.722,273.558 810.957,237.605 739.726,217.339 c 37.255,37.914 68.29,86.275 93.137,145.098 37.898,-9.804 68.627,-22.212 92.156,-37.255 z m 77.451,496.079 c -44.454,26.147 -97.717,47.395 -159.803,63.725 -24.188,62.745 -53.6,111.106 -88.236,145.098 111.106,-35.295 193.78,-104.903 248.039,-208.823 z M 959.333,363.417 c -28.109,18.964 -64.384,34.314 -108.823,46.079 19.607,60.14 31.035,123.867 34.314,191.176 55.545,-16.988 107.184,-39.215 154.902,-66.666 C 1026,471.261 999.192,414.397 959.333,363.417 Z m 78.431,366.667 c 8.487,-33.978 12.746,-68.628 12.746,-103.922 0,-12.407 -0.659,-25.49 -1.961,-39.216 -50.337,26.809 -104.581,48.698 -162.745,65.687 -1.317,61.442 -9.482,119.608 -24.51,174.509 87.577,-27.45 146.4,-59.804 176.47,-97.058 z"
   id="path237"
   inkscape:connector-curvature="0"
   style="stroke:#000000" />
	</g>
</g>
<g
   id="wifi_spot"
   display="none"
   style="display:none">
	<g
   display="inline"
   id="g252"
   style="display:inline">
		<path
   d="m 746.094,472.836 c 0,-76.294 -61.84,-138.134 -138.135,-138.134 -76.318,0 -138.184,61.84 -138.184,138.134 0,59.065 37.059,109.463 89.19,129.237 -3.905,171.86 -68.856,529.086 -68.856,529.086 h 227.559 c 0,0 -63.849,-366.799 -68.789,-526.304 56.313,-17.446 97.215,-69.952 97.215,-132.019 z"
   id="path242"
   inkscape:connector-curvature="0"
   style="stroke:#000000" />
		<path
   d="m 811.547,242.682 c -11.248,10.713 -11.656,28.705 -0.764,39.75 49.293,51.736 76.422,119.378 76.422,190.735 0,68.023 -24.99,133.35 -70.314,183.94 -10.535,11.528 -9.543,29.495 2.111,39.878 11.605,10.408 29.496,9.645 39.879,-1.985 54.738,-61.051 84.844,-139.813 84.844,-221.833 0,-86.016 -32.752,-167.654 -92.072,-229.62 -10.866,-11.376 -28.706,-11.733 -40.106,-0.865 z"
   id="path244"
   inkscape:connector-curvature="0"
   style="stroke:#000000" />
		<path
   d="m 998.414,139.896 c -10.816,-11.248 -28.654,-11.681 -40.057,-0.916 -11.197,10.79 -11.604,28.654 -0.764,39.953 75.303,78.891 116.885,182.186 116.885,291.181 0,104.084 -38.299,203.841 -107.621,281.229 -10.459,11.604 -9.441,29.443 2.189,39.979 11.654,10.307 29.494,9.441 39.928,-2.239 C 1087.66,701.362 1131,588.092 1131,470.113 1131,346.435 1083.793,229.117 998.414,139.896 Z"
   id="path246"
   inkscape:connector-curvature="0"
   style="stroke:#000000" />
		<path
   d="m 325.738,456.473 c 0,-67.998 25.016,-133.324 70.338,-183.94 10.537,-11.528 9.543,-29.495 -2.137,-39.903 -11.631,-10.383 -29.469,-9.619 -39.877,1.985 -54.715,61.076 -84.846,139.839 -84.846,221.858 0,86.041 32.752,167.628 92.098,229.62 10.842,11.401 28.705,11.732 40.055,0.892 11.25,-10.739 11.707,-28.706 0.814,-39.776 -49.292,-51.737 -76.445,-119.354 -76.445,-190.736 z"
   id="path248"
   inkscape:connector-curvature="0"
   style="stroke:#000000" />
		<path
   d="m 166.914,459.526 c 0,-104.058 38.301,-203.815 107.646,-281.204 10.408,-11.604 9.416,-29.469 -2.238,-40.005 -11.631,-10.307 -29.471,-9.416 -39.904,2.265 -78.686,87.695 -122.023,200.991 -122.023,318.944 0,123.679 47.205,241.021 132.611,330.243 10.789,11.223 28.629,11.655 40.029,0.891 11.197,-10.765 11.605,-28.654 0.764,-39.953 C 208.496,671.816 166.914,568.496 166.914,459.526 Z"
   id="path250"
   inkscape:connector-curvature="0"
   style="stroke:#000000" />
	</g>
</g>
<g
   id="special_site"
   display="none"
   style="display:none">
	<g
   display="inline"
   id="g257"
   style="display:inline">
		<path
   d="m 631.525,113.162 151.15,329.325 354.35,-4 -259.25,253.891 154.15,420.784 -403.4,-237.25 -413.424,237.25 L 375.275,701.146 107,445.153 l 364.377,-2 z"
   id="path255"
   inkscape:connector-curvature="0"
   style="stroke:#000000" />
	</g>
</g>
<g
   id="green_maps_available"
   display="none"
   style="display:none">
	<g
   display="inline"
   id="g262"
   style="display:inline">
		<path
   d="M 896.047,312.095 630.691,133.822 381.809,303.847 125,116.162 v 77.968 648.132 l 249.398,273.9 256.43,-235.443 255.645,234.713 266.922,-276.631 V 119.083 Z M 412.746,378.609 607.109,245.826 V 794.97 L 412.746,973.422 Z M 654.652,245.338 857.293,381.49 V 981.087 L 654.652,795.063 Z M 204.184,272.124 349.383,378.23 V 971.074 L 204.184,811.621 Z M 1074.211,806.808 920.684,965.876 V 392.659 l 153.527,-115.181 z"
   id="path260"
   inkscape:connector-curvature="0"
   style="stroke:#000000" />
	</g>
</g>
<g
   id="appointment_needed"
   display="none"
   style="display:none">
	<path
   display="inline"
   d="M 792.785,213.324 C 714.601,144.911 642.31,110.463 519.133,135.117 c -73.287,14.691 -92.875,65.989 -102.621,107.517 -9.77,41.528 -21.963,197.919 112.414,195.47 134.354,-2.448 166.137,63.517 166.137,119.71 0,42.363 0,61.13 0,67.809 0,2.185 0,3.078 0,3.078 0,6.681 0,25.455 0,67.807 0,56.195 -31.783,122.16 -166.137,119.711 -134.377,-2.447 -122.184,153.941 -112.414,195.47 9.746,41.528 29.334,92.825 102.621,107.517 123.178,24.655 195.469,-9.794 273.652,-78.207 78.184,-68.389 92.85,-256.537 92.85,-285.871 0,-26.28 0,-109.399 0,-126.426 0,0 0,-1.1 0,-3.078 0,-17.026 0,-100.148 0,-126.428 0,-29.334 -14.666,-217.483 -92.85,-285.872 z"
   id="path265"
   inkscape:connector-curvature="0"
   style="display:inline;stroke:#000000" />
</g>
<g
   id="eco_justice_organization"
   display="none"
   style="display:none">
	<g
   display="inline"
   id="g270"
   style="display:inline">
		<path
   d="m 829.98,124.147 c 0,0 -62.598,55.7 -170.276,57.857 -107.66,-2.157 -170.171,-57.857 -170.171,-57.857 L 61.516,250.758 104.434,487.97 278.84,466.527 v 657.636 h 380.025 1.707 380.028 V 466.526 L 1215.096,487.969 1258,250.758 Z M 421.199,522.583 H 888.09 V 627.235 H 421.199 Z m 466.906,321.72 H 421.215 V 739.681 h 466.891 v 104.622 z"
   id="path268"
   inkscape:connector-curvature="0"
   style="stroke:#000000" />
	</g>
</g>
<g
   id="vote_here"
   display="none"
   style="display:none">
	<g
   display="inline"
   id="g279"
   style="display:inline">
		<path
   d="m 720.408,535.085 c -1.096,0.812 -2.271,1.651 -3.509,2.511 l 14.368,2.305 c -4.372,-1.942 -7.948,-3.527 -10.859,-4.816 z"
   id="path273"
   inkscape:connector-curvature="0"
   style="stroke:#000000" />
		<path
   d="m 992.944,1023.637 189.991,-320.861 -225.872,-133.7 c 3.983,-3.78 7.434,-7.697 10.323,-11.564 14.312,-18.671 18.553,-35.976 19.078,-37.761 l 3.9,-15.756 -13.734,-8.665 C 976.21,495.067 799.894,383.439 769.405,366.713 745.221,353.95 597.843,261.203 456.895,260.731 c -18.854,0 -37.643,1.707 -56.076,5.619 -5.173,-3.073 -9.668,-5.763 -13.565,-8.107 l 9.89,-19.412 -272.123,-117.669 v 470.695 l 73.539,36.763 19.508,-38.291 c 13.39,25.919 38.577,67.654 73.791,89.706 32.26,19.099 155.205,89.176 193.369,110.906 l -14.887,25.143 349.499,206.973 -445.489,-1.495 -115.961,99.601 h 934.785 l 2.824,-96.844 z M 253.678,561.187 c -3.545,-7.143 -5.318,-11.265 -5.318,-11.265 l -2.559,-5.909 -25.092,-17.436 138.57,-232.656 c 6.617,3.991 15.23,9.139 26.391,15.756 l 8.035,4.727 9.033,-2.311 c 17.133,-4.386 35.318,-6.355 54.158,-6.355 122.367,-0.498 265.834,86.209 290.912,100.441 12.67,6.906 64.873,39.231 112.521,69.114 30.184,18.88 58.924,36.999 76.084,47.817 -2.113,3.598 -4.766,7.432 -8.008,10.924 -8.705,9.033 -19.604,16.491 -40.084,16.675 -12.514,0 -29.031,-3.177 -50.312,-12.631 C 725.751,488.213 725.751,488.213 725.751,488.213 l -14.811,-6.592 -10.793,11.817 h -0.014 c -1.654,1.418 -32.074,32.351 -101.281,32.456 -40.229,0 -94.27,-10.583 -164.066,-45.455 l -20.088,40.256 c 6.353,3.176 12.598,6.161 18.754,8.99 66.313,30.473 121.249,41.217 165.4,41.217 5.86,0.005 11.518,-0.182 16.979,-0.534 L 508.155,752.222 c -2.794,-1.592 -6.074,-3.461 -9.765,-5.565 C 452.702,720.61 344.053,658.61 314.822,641.278 299.605,632.665 281.275,609.53 268.789,588.602 262.408,578.15 257.223,568.303 253.678,561.187 Z m 254.056,216.69 c 0,0 -0.01,-0.006 -0.015,-0.009 l 0.008,-0.015 z M 675.065,558.623 c 18.358,-6.45 32.24,-14.369 41.834,-21.027 1.238,-0.859 2.413,-1.699 3.509,-2.511 2.911,1.289 6.487,2.874 10.859,4.815 16.114,7.151 43.145,19.167 88.49,39.326 25.682,11.37 48.383,16.465 68.564,16.465 7.739,0.063 14.998,-0.705 21.783,-2.107 l 211.161,125 -188.789,318.864 -400.492,-237.146 z"
   id="path275"
   inkscape:connector-curvature="0"
   style="stroke:#000000" />
		<polygon
   points="507.719,777.868 507.734,777.877 507.728,777.854 "
   id="polygon277"
   style="stroke:#000000" />
	</g>
</g>
<g
   id="free_speech_zone"
   display="none"
   style="display:none">
	<path
   display="inline"
   d="m 893.401,906.088 c 45.166,69.975 104.712,111.897 170.817,111.897 144.635,0 257.781,-200.444 257.781,-456.396 0,-255.981 -113.146,-456.427 -257.781,-456.427 -62.535,0 -119.2,37.518 -163.375,100.81 -109.348,53.095 -237.181,102.003 -367.458,123.441 -85.072,13.961 -171.244,22.739 -254.197,22.739 -63.6,0 -121.348,0 -121.348,0 v 0.231 c -1.758,-0.148 -3.525,-0.231 -5.303,-0.231 -61.191,0 -110.586,88.884 -110.586,198.555 0,109.672 49.395,198.556 110.586,198.556 1.778,0 3.545,-0.083 5.303,-0.231 v 0.231 c 0,0 37.505,0 94.551,0 15.536,88.019 57.658,326.713 58.863,334.166 1.477,9.114 7.742,21.733 20.01,21.733 12.285,0 132.029,0 145.336,0 13.289,0 14.311,-13.473 12.619,-21.001 -1.366,-5.97 -44.278,-233.256 -61.993,-327.139 36.479,3.957 73.987,9.268 111.921,15.589 120.368,20.436 245.082,74.011 354.254,133.477 z m 170.818,36.852 c -88.152,0 -182.795,-153.138 -182.795,-381.352 0,-228.152 94.643,-381.29 182.795,-381.29 88.152,0 182.689,153.138 182.689,381.29 0,228.215 -94.537,381.352 -182.689,381.352 z"
   id="path282"
   inkscape:connector-curvature="0"
   style="display:inline;stroke:#000000" />
</g>
<g
   id="social_service"
   display="none"
   style="display:none">
	<g
   display="inline"
   id="g287"
   style="display:inline">
		<path
   d="m 1183.453,706.669 c -14.877,-14.645 -32.789,-25 -50.701,-34.072 -23.223,-11.612 -86.886,-42.525 -140.31,-68.401 20.791,-11.461 36.048,-27.175 45.794,-42.567 19.195,-29.492 22.463,-56.885 22.871,-59.16 l 2.393,-18.873 -17.211,-8.227 c -0.525,-0.204 -265.053,-126.255 -309.803,-144.282 -34.656,-13.448 -136.58,-62.253 -226.955,-62.69 -17.822,0 -35.443,1.984 -52.332,7.03 -32.09,9.656 -73.279,12.924 -109.307,12.865 -16.048,0 -30.998,-0.6 -43.798,-1.394 L 313.849,265.129 -10.48,118.162 v 522.025 l 126.723,65.898 5.584,-12.461 11.947,8.435 c 1.254,33.344 23.309,102.159 131.855,165.753 138.477,82.089 488.652,233.285 489.295,233.605 1.982,0.642 38.447,16.453 80.455,16.744 0.758,0 1.516,0 2.332,0 28.123,0 64.471,-10.443 82.207,-46.091 2.353,-4.653 4.447,-8.913 6.333,-12.854 18.423,7.272 40.823,13.195 64.495,13.35 0.582,0.029 1.225,0.029 1.809,0.029 25.963,0 56.943,-10.123 74.213,-39.031 9.85,-16.39 15.105,-31.549 17.271,-44.753 5.899,0.932 12.027,1.522 18.316,1.637 0.992,0 1.926,0.059 2.918,0.059 25.846,0 57.467,-15.169 71.178,-48.017 7.002,-12.835 10.619,-26.371 10.502,-39.439 -0.385,-26.211 -12.88,-45.971 -27.582,-61.021 1.26,-0.415 2.52,-0.847 3.777,-1.318 14.938,-5.455 30.807,-17.036 38.449,-35.502 5.484,-13.01 8.459,-25.962 8.4,-38.564 0.177,-24.622 -11.726,-45.566 -26.544,-59.977 z m -49.301,196.383 c 0,3.88 -0.875,8.401 -4.551,15.082 l -0.699,1.225 -0.408,1.079 c -7.936,15.403 -12.66,15.986 -26.139,17.212 -11.318,0.116 -26.371,-4.405 -37.922,-9.51 -5.777,-2.509 -10.736,-5.076 -14.061,-6.943 -3.385,-1.867 -4.785,-2.801 -4.785,-2.801 l -1.633,-1.05 -342.882,-152.917 -21.471,48.191 339.965,151.691 c 2.561,1.521 6.947,4.12 12.775,7.104 0.072,0.807 0.119,1.738 0.119,2.814 -0.059,5.951 -1.518,16.248 -10.969,32.089 -5.893,9.334 -14.061,12.98 -30.746,13.477 -18.496,0.175 -42.824,-7.701 -57.234,-15.053 C 908.597,992.199 630.593,861.073 630.361,860.927 L 607.84,908.77 h -0.059 c 0.292,0.048 192.146,90.583 270.635,128.039 -1.682,3.51 -3.568,7.355 -5.7,11.604 -6.184,12.106 -16.977,16.365 -37.338,16.92 -13.828,0.029 -29.406,-3.063 -41.016,-6.301 -11.727,-3.238 -18.729,-6.331 -18.846,-6.243 0,0 -87.281,-37.777 -191.598,-85.56 C 479.629,919.446 358.072,861.278 292.611,822.421 190.25,760.753 187.217,710.228 186.545,697.334 c 0,-1.634 0.117,-2.713 0.176,-3.209 h -0.029 l 3.82,-16.686 -46.665,-32.952 137.272,-306.321 c 16.876,1.444 40.404,2.896 66.773,2.896 39.031,-0.029 84.102,-3.063 124.475,-15.023 10.678,-3.238 23.279,-4.843 37.164,-4.843 72.23,-0.467 171.18,44.078 207.293,58.927 19.195,7.643 97.143,43.903 168.555,77.538 47.84,22.521 93.348,44.107 118.377,55.95 -3.092,7.993 -7.76,17.445 -14.703,25.788 -12.951,15.402 -30.979,28.821 -68.26,29.2 -0.644,10e-4 -1.303,-0.01 -1.958,-0.018 -6.834,-0.419 -11.208,-0.56 -11.208,-0.56 -13.37,-1.154 -28.813,-4.121 -46.577,-9.603 C 696.405,507.747 696.405,507.747 696.405,507.747 l -14.176,-4.347 -11.145,9.802 c 0,0 -0.408,0.408 -2.334,1.896 -13.652,10.706 -82.088,59.422 -195.682,59.394 -25.496,0 -53.326,-2.48 -83.402,-8.314 l -10.152,51.838 c 33.373,6.563 64.674,9.306 93.555,9.306 116.627,-0.116 192.648,-44.982 220.828,-65.082 2.158,0.672 4.609,1.43 7.525,2.305 20.596,6.359 61.785,19.021 144.166,44.399 21.779,6.669 41.715,10.505 59.961,11.886 47.501,22.953 170.012,82.242 203.574,99.024 15.637,7.818 29.113,16.22 37.166,24.329 8.109,8.343 10.734,14.178 10.91,22.462 0,4.435 -1.051,10.269 -4.318,18.115 -1.107,2.363 -2.334,3.997 -8.518,6.564 -5.951,2.333 -15.695,3.733 -26.08,3.704 -12.193,0 -25.145,-1.691 -34.713,-3.442 -6.418,-1.108 -11.145,-2.246 -13.596,-2.829 l -298.191,-137.66 -22.17,47.986 302.625,139.615 2.043,0.583 c 0.5,0.084 5.701,1.507 13.954,3.169 12.193,7.014 28.356,15.631 42.056,26.411 16.16,12.487 24.445,25.323 23.861,34.191 z"
   id="path285"
   inkscape:connector-curvature="0"
   style="stroke:#000000" />
	</g>
</g>
<g
   id="food_bank"
   display="none"
   style="display:none">
	<g
   display="inline"
   id="g298"
   style="display:inline">
		<g
   id="g292">
			<path
   d="m 440.407,475.789 c -27.746,-32.288 -66.286,-74.443 -53.83,-125.953 6.008,-24.496 18.61,-44.914 30.676,-64.795 28.186,-45.697 54.074,-112.153 6.253,-170.478 38.442,1.148 62.378,-2.394 62.378,-2.394 50.508,79.914 12.944,156.019 -17.097,204.523 -10.551,17.341 -19.734,32.166 -23.349,47.357 -10.062,41.691 44.597,94.935 64.575,110.248 l -0.146,-0.098"
   id="path290"
   inkscape:connector-curvature="0"
   style="stroke:#000000" />
		</g>
		<g
   id="g296">
			<path
   d="m 300.117,478.329 c -29.21,-32.215 -62.133,-73.906 -49.042,-128.493 5.959,-24.496 18.562,-44.914 30.871,-64.746 13.188,-21.469 25.547,-41.594 29.699,-66.286 l 67.604,1.734 c -6.057,36.391 -30.871,71.952 -45.916,96.302 -10.552,17.194 -19.734,32.093 -23.447,47.211 -10.014,41.691 44.646,94.935 64.576,110.248 l -0.049,-0.098 z"
   id="path294"
   inkscape:connector-curvature="0"
   style="stroke:#000000" />
		</g>
	</g>
	<g
   display="inline"
   id="g302"
   style="display:inline">
		<path
   d="m 217.614,525.758 h 620.604 c 0,0 -0.219,73.25 -5.219,132.25 -5,59 -23,112 -39.001,145.491 30.04,-9.536 71.056,-22.278 123.205,-37.877 v 0 c 14.557,-4.396 28.283,-6.398 41.13,-6.398 v 0 c 44.06,-0.146 74.442,24.473 91.051,46.844 v 0 c 16.999,22.519 23.104,43.67 23.594,45.209 v 0 l 5.227,17.902 -16.657,8.45 c 0,0.049 -233.734,118.895 -361.763,182.225 v 0 c -43.327,21.371 -72.099,35.487 -82.454,39.347 v 0 c -16.412,5.52 -56.516,24.179 -108.05,24.179 v 0 c -0.098,0 -0.195,0 -0.293,0 v 0 c -21.786,0 -45.818,-3.297 -71.023,-12.04 v 0 c -32.044,-11.113 -84.652,-23.96 -132.229,-33.729 v 0 c -47.089,-9.818 -91.979,-16.608 -102.481,-16.412 v 0 c -0.293,0.049 -0.587,0.049 -0.831,0.049 v 0 c -23.007,1.66 -177.315,18.269 -177.511,18.269 v 0 L 0,1082.226 V 819.354 l 9.184,-6.741 C 10.786,811.812 110.002,737.809 241,717.144 215,662.281 217.614,525.758 217.614,525.758 Z M 430.979,734.8 m -116.208,298.724 c 48.896,10.062 102.091,22.91 137.896,35.293 v 0 c 20.224,6.96 39.029,9.524 56.321,9.524 v 0 c 41.472,-0.049 73.466,-14.58 93.542,-21.688 v 0 c 2.589,-0.733 35.464,-16.364 77.325,-37.173 v 0 c 42.497,-21.029 96.864,-48.261 150.4,-75.225 v 0 c 79.67,-40.152 157.435,-79.597 192.116,-97.206 v 0 c -2.345,-4.348 -5.324,-9.135 -8.841,-13.775 v 0 c -12.212,-15.582 -28.381,-28.868 -55.197,-29.039 v 0 c -8.109,0 -17.39,1.245 -28.186,4.519 v 0 c -118.649,35.487 -178.731,55.93 -183.372,57.493 v 0 c -2.296,3.614 -4.836,7.18 -7.62,10.697 v 0 c -23.642,29.553 -65.602,50.068 -128.175,49.727 v 0 c -166.423,0 -231.829,0 -231.829,0 v 0 -44.988 c 0.244,0 65.406,0 231.829,0 v 0 c 53.927,-0.317 78.937,-15.827 93.151,-33.069 v 0 c 14.264,-17.39 18.366,-40.837 18.317,-59.594 v 0 c 0,-3.273 -0.146,-6.351 -0.293,-9.184 v 0 H 422.333 l -4.103,-1.661 C 380.764,762.959 342.76,756.878 305.686,756.829 v 0 C 198.71,756.634 99.257,808.705 57.151,834.862 v 0 c -4.836,2.979 -8.89,5.593 -12.114,7.693 v 0 189.527 c 44.549,-4.763 135.014,-14.361 154.162,-15.729 v 0 c 1.173,-0.098 2.54,-0.171 4.055,-0.171 v 0 c 19.978,0.222 62.183,7.353 111.517,17.342 z m 64.381,-106.852 v 0.049 z"
   id="path300"
   inkscape:connector-curvature="0"
   style="stroke:#000000" />
	</g>
</g>
<g
   id="unsustainable_land_use"
   display="none"
   style="display:none">
	<g
   display="inline"
   id="g313"
   style="display:inline">
		<path
   d="M 452.311,662.771 353.956,549.289 505.258,481.215 467.439,352.604 552.86,340.946 C 524.192,253.127 478.583,171.773 417.286,124.162 390.035,232.268 263.955,294.465 199.676,443.923 c -94.302,226.603 38.302,386.346 110.631,454.104 5.737,64.252 19.33,154.432 51.529,226.135 l 21.505,-5.271 c 0,0 -16.819,-107.947 -11.25,-195.584 56.915,-26.389 108.847,-75.213 147.548,-135.583 L 397.994,750.295 Z"
   id="path305"
   inkscape:connector-curvature="0"
   style="stroke:#000000" />
		<polygon
   points="627.991,592.379 723.349,622.904 954.419,696.875 965.857,536.902 709.922,578.926 "
   id="polygon307"
   style="stroke:#000000" />
		<polygon
   points="824.491,155.418 650.59,384.576 617.554,428.109 657.938,408.646 926.246,279.338 "
   id="polygon309"
   style="stroke:#000000" />
		<polygon
   points="842.491,937.097 624.783,799.208 552.88,753.668 581.414,801.977 726.979,1048.419 "
   id="polygon311"
   style="stroke:#000000" />
	</g>
</g>
<g
   id="gentrification"
   display="none"
   style="display:none">
	<g
   display="inline"
   id="g318"
   style="display:inline">
		<path
   d="m 1181,1021.656 -156.016,-16.282 24.555,-240.462 95.467,65.495 9.922,-94.499 -631.65,-517.571 c -18.037,-52.878 -67.59,-91.175 -126.541,-91.175 -74.158,0 -134.209,60.076 -134.262,134.262 0,35.234 13.666,67.484 35.941,91.437 -14.475,12.617 -23.113,28.926 -27.484,43.218 -6.623,20.863 -7.67,40.47 -9.816,49.161 -4.451,20.051 -44.869,216.902 -49.973,241.613 l -147.664,348.467 129.68,91.829 169.732,-313.862 39.814,61.778 -35.678,213.865 137.506,38.062 33.377,-92.823 634.922,65.547 z m -753.111,28.481 31.07,-186.694 -100.1,-155.334 -184.076,340.353 -45.129,-31.936 132.926,-313.757 0.576,-2.618 c 0.053,-0.209 45.861,-223.446 50.312,-243.289 3.297,-15.837 6.623,-38.532 10.025,-51.411 4.006,-15.235 12.225,-47.171 34.736,-47.171 2.514,-14.293 3.221,-22.801 3.221,-22.801 l -12.225,-8.874 c -20.156,-14.764 -33.141,-38.322 -33.141,-65.181 0.078,-44.501 36.125,-80.572 80.65,-80.625 44.527,0.053 80.574,36.124 80.627,80.625 0.078,31.753 -18.352,59.16 -45,72.354 l -12.434,6.125 -3.35,22.094 c 0,0 251.691,29.057 269.963,30.418 16.754,1.256 26.674,16.229 26.674,31.647 0,19.24 -13.141,23.586 -29.789,26.046 -34.371,5.131 -230.227,11.204 -230.227,11.204 l -30.178,194.39 125.047,191.93 -77.17,214.39 z"
   id="path316"
   inkscape:connector-curvature="0"
   style="stroke:#000000" />
	</g>
</g>
<g
   id="shanty_town"
   display="none"
   style="display:none">
	<g
   display="inline"
   id="g323"
   style="display:inline">
		<path
   d="M 869.524,1041.919 V 746.824 l 113.735,85.298 V 725.247 L 179.348,130.149 v 911.77 H 57.77 v 88.243 H 1046 v -88.243 H 869.524 Z M 578.074,908.015 H 432.568 V 655.53 h 145.506 z"
   id="path321"
   inkscape:connector-curvature="0"
   style="stroke:#000000" />
	</g>
</g>
<g
   id="refugee_area"
   display="none"
   style="display:none">
	<g
   display="inline"
   id="g330"
   style="display:inline">
		<path
   d="m 866.118,673.972 c 1.527,-33.184 2.914,-66.354 2.914,-77.491 l 0.036,-0.292 c 0.085,-39.014 -23.892,-59.808 -43.423,-63.354 -2.522,-0.441 -8.886,-0.785 -18.195,-1.056 v -19.666 c 26.187,-13.273 44.152,-40.425 44.152,-71.832 0,-44.455 -36.051,-80.481 -80.493,-80.481 -44.456,0 -80.518,36.026 -80.518,80.481 0,27.85 14.124,52.369 35.588,66.82 v 23.753 c -21.685,-0.095 -45.289,-0.148 -69.136,-0.206 -5.955,-0.011 -11.917,-0.021 -17.857,-0.031 1.927,-42.277 3.573,-82.523 3.573,-96.726 0,0 0.024,0 0.024,-0.413 0.085,-52.957 -32.236,-80.408 -57.986,-85.218 -10.875,-2.032 -24.147,-2.633 -38.066,-2.873 v -15.814 c 36.499,-18.347 61.569,-56.124 61.569,-99.787 0,-61.654 -50.019,-111.624 -111.624,-111.624 -61.654,0 -111.648,49.97 -111.648,111.624 0,43.708 25.109,81.517 61.679,99.842 v 15.764 c -13.815,0.243 -26.979,0.851 -37.774,2.868 -25.653,4.81 -57.828,32.066 -57.975,84.732 -0.012,0.194 -0.036,0.389 -0.036,0.632 0.037,20.872 10.735,144.306 19.17,238.407 h -7.826 c -37.155,0.098 -67.181,30.074 -67.266,67.24 v 311.674 c 0.085,37.07 30.135,67.145 67.266,67.217 h 487.878 c 37.131,-0.072 67.181,-30.098 67.229,-67.217 h 0.049 V 739.271 c -0.083,-31.653 -21.898,-58.112 -51.304,-65.299 z m -15.974,401.46 H 707.984 V 714.754 l 142.159,0.008 c 13.324,0 24.499,11.174 24.499,24.51 v 311.674 h 0.024 c -0.023,13.312 -11.174,24.437 -24.522,24.486 z M 337.755,1050.945 V 739.271 c 0,-13.336 11.149,-24.51 24.511,-24.535 l 162.675,0.009 v 360.687 H 362.266 c -13.362,-0.049 -24.511,-11.174 -24.511,-24.487 z M 700.149,679.162 h -42.755 c 0,-0.023 0,-26.322 0,-50.152 -0.023,-0.025 -0.048,-0.025 -0.061,-0.049 -1.263,-1.24 -5.308,-3.523 -10.7,-5.271 -10.75,-3.645 -26.406,-5.346 -35.625,-5.271 -6.717,-0.025 -18.305,1.457 -28.229,4.008 -6.183,1.408 -11.964,3.74 -15.364,5.369 0,17.709 0,50.795 0,50.818 h 0.023 -0.023 -42.743 c 0,-0.023 0,-44.188 0,-57.791 0.668,-15.547 10.179,-22.811 16.543,-27.256 7.009,-4.566 14.454,-7.531 22.386,-10.105 15.863,-4.932 33.05,-7.725 47.407,-7.773 20.199,0.801 50.723,2.234 74.347,20.988 7.811,6.486 14.94,17.903 14.794,30.95 -0.036,23.805 -0.036,51.512 0,51.535 z m -132.466,35.585 97.571,0.005 v 360.68 h -97.571 z"
   id="path326"
   inkscape:connector-curvature="0" />
		
			<line
   x1="567.41602"
   y1="678.61298"
   x2="567.43903"
   y2="678.61298"
   id="line328"
   style="stroke:#ffffff;stroke-width:0;stroke-linecap:round;stroke-linejoin:round" />
	</g>
</g>
<g
   id="poor_labor_practice"
   display="none"
   style="display:none">
	<g
   display="inline"
   id="g335"
   style="display:inline">
		<path
   d="M 1117,1109.162 1115.729,275.784 782.409,109.149 V 270.344 L 459.969,109.149 V 270.342 L 137.582,109.149 v 999.122 z M 411.357,967.139 492.338,835.895 H 371.617 V 738.924 H 552.172 L 616.508,634.656 H 371.617 v -96.945 h 304.709 l 88.793,-143.904 82.504,50.951 -57.352,92.953 h 89.514 v 96.945 H 730.457 l -64.333,104.268 h 213.661 v 96.971 H 606.294 L 493.912,1018.04 Z"
   id="path333"
   inkscape:connector-curvature="0"
   style="stroke:#000000" />
	</g>
</g>
<g
   id="landmark"
   display="none"
   style="display:none">
	<g
   display="inline"
   id="g340"
   style="display:inline">
		<path
   d="m 88.953,1133.162 v -1000 H 1089 v 964.309 35.691 z m 964.344,-35.691 v -35.693 z m -892.889,-35.694 h 857.139 V 204.569 H 160.408 Z"
   id="path338"
   inkscape:connector-curvature="0"
   style="stroke:#000000" />
	</g>
</g>
<g
   id="information_kiosk"
   display="none"
   style="display:none">
	<g
   display="inline"
   id="g345"
   style="display:inline">
		<path
   d="M 1140.724,482.467 682.636,131.162 241,476.6 l 0.998,652.553 898.648,2.009 z M 683.984,335.073 c 66.989,0 121.302,54.313 121.302,121.302 0,67.012 -54.313,121.301 -121.302,121.301 -66.976,0 -121.3,-54.289 -121.3,-121.301 0,-66.989 54.325,-121.302 121.3,-121.302 z m 182.832,737.194 H 686.77 684.072 504.038 v -50.7 c 0,0 98.403,-11.907 98.403,-62.606 0,-29.806 0,-179.675 0,-200.52 0,-20.868 2.971,-59.637 -26.835,-59.637 -29.817,0 -35.784,0 -35.784,0 v -47.703 c 42.756,0 97.635,0 144.25,0 0.9,0 1.803,0 2.698,0 46.617,0 101.53,0 144.276,0 v 47.703 c 0,0 -5.979,0 -35.784,0 -29.819,0 -26.823,38.769 -26.823,59.637 0,20.845 0,170.714 0,200.52 0,50.699 98.377,62.606 98.377,62.606 z"
   id="path343"
   inkscape:connector-curvature="0"
   style="stroke:#000000" />
	</g>
</g>
<g
   id="school"
   display="none"
   style="display:none">
	<g
   display="inline"
   id="g352"
   style="display:inline">
		<path
   d="m 756.795,331.552 c 126.588,56.405 155.432,-77.622 155.432,-77.622 0,0 -97.77,10.702 -150.232,-46.634 -87.463,-95.53 -155.361,-46.611 -155.361,-46.611 l 2.611,189.031 c -10e-4,0 59.202,-57.523 147.55,-18.164 z"
   id="path348"
   inkscape:connector-curvature="0"
   style="stroke:#000000" />
		<path
   d="m 912.285,672.469 75.304,2.236 -374.285,-287.052 -360.866,282.264 69.339,2.237 4.474,388.021 H 242 v 72.322 h 745.589 v -72.322 h -75.304 z"
   id="path350"
   inkscape:connector-curvature="0"
   style="stroke:#000000" />
	</g>
</g>
<g
   id="place_of_worship"
   display="none"
   style="display:none">
	<g
   display="inline"
   id="g359"
   style="display:inline">
		<path
   d="m 972.918,511.761 77.96,2.315 -387.483,-297.173 -373.589,292.216 71.785,2.315 4.631,401.702 H 279 v 74.872 h 324.997 l 1.029,-114 h 121.697 l -0.04,114 h 324.194 v -74.872 h -77.96 V 511.761 Z M 691.341,850.227 H 675.685 C 597.552,826.78 568.751,761.626 574.515,701.234 c 4.5,-47.154 70.359,-134.509 62.941,-233.131 -3.367,-44.886 -0.316,-69.318 44.514,-3.682 25.23,37.002 54.982,84.361 65.283,122.273 29.117,106.767 10.523,193.192 -55.912,263.533 z"
   id="path355"
   inkscape:connector-curvature="0"
   style="stroke:#000000" />
		<path
   d="m 666.944,614.14 c 0,0 -12.012,36.035 -27.016,85.568 -15.211,50.167 24.004,96.057 24.004,96.057 0,0 31.518,-16.492 39.029,-73.558 9.483,-71.958 -36.017,-108.067 -36.017,-108.067 z"
   id="path357"
   inkscape:connector-curvature="0"
   style="stroke:#000000" />
	</g>
</g>
<g
   id="hospital"
   display="none"
   style="display:none">
	<g
   display="inline"
   id="g364"
   style="display:inline">
		<path
   d="M 1058.898,514.545 1160,517.548 657.498,132.162 173.014,511.119 l 93.093,3.003 6.006,520.943 H 159 v 97.097 h 1001 v -97.097 H 1058.898 Z M 946.306,792.03 H 767.639 V 982.747 H 575.348 V 792.03 H 393.481 V 599.739 H 575.347 V 437.921 h 192.292 v 161.818 h 178.667 z"
   id="path362"
   inkscape:connector-curvature="0"
   style="stroke:#000000" />
	</g>
</g>
<g
   id="cemetery"
   display="none"
   style="display:none">
	<g
   display="inline"
   id="g369"
   style="display:inline">
		<path
   d="m 1242,1004.008 c 0,-23.665 -21.109,-53.414 -56.693,-53.414 l -80.805,-0.273 c 0,-150.534 0,-376.409 0,-410.876 0,-103.08 -67.941,-395.282 -368.686,-395.282 -300.795,0 -353.117,300.77 -353.117,395.282 0,74.895 0,268.537 0,410.826 l -77.898,0.323 c -56.369,0 -59.574,47.504 -59.574,59.424 0,11.82 0,120.313 0,120.313 H 517.67 c -10.856,-12.62 -22.621,-37.097 -31.717,-83.661 -9.959,-50.906 -11.846,-70.499 -64.889,-133.126 0,0 53.961,-20.586 104.545,98.883 0,0 9.635,-283.289 -73.305,-443.83 0,0 103.924,50.584 112.789,207.524 0,0 19.791,-227.812 245.393,-322.896 0,0 -212.391,156.543 -201.936,437.473 0,0 63.645,-74.1 132.355,-71.468 -93.888,70.158 -91.218,229.556 -131.574,311.101 H 1242 c 0,0 0,-102.533 0,-126.323 z"
   id="path367"
   inkscape:connector-curvature="0"
   style="stroke:#000000" />
	</g>
</g>
<g
   id="wc__x002F__public_restroom"
   display="none"
   style="display:none">
	<g
   display="inline"
   id="g380"
   style="display:inline">
		<path
   d="m 497.189,377.788 c 68.416,0 123.863,-55.396 123.863,-123.762 0,-68.391 -55.447,-123.864 -123.863,-123.864 -68.391,0 -123.814,55.474 -123.814,123.864 0,68.366 55.424,123.762 123.814,123.762 z"
   id="path372"
   inkscape:connector-curvature="0"
   style="stroke:#000000" />
		<path
   d="m 864.824,377.788 c 68.34,0 123.762,-55.396 123.762,-123.762 0,-68.391 -55.422,-123.864 -123.762,-123.864 -68.467,0 -123.891,55.474 -123.891,123.864 10e-4,68.366 55.424,123.762 123.891,123.762 z"
   id="path374"
   inkscape:connector-curvature="0"
   style="stroke:#000000" />
		<path
   d="M 1093.814,893.412 974.852,452.383 c -6.178,-24.814 -28.949,-42.582 -55.09,-42.582 l -100.838,-0.025 c -27.418,-0.051 -51.031,19.656 -55.984,46.487 l -106.276,439.676 -0.152,0.663 c -0.816,4.06 -0.971,7.582 -0.971,10.44 0,13.582 4.852,26.525 13.377,36.711 11.156,12.892 26.703,20.116 43.553,20.167 v 0.026 h 76.131 l 41.554,166.215 h 91.57 l 38.667,-166.215 h 78.151 c 17.461,-0.026 33.979,-7.991 44.803,-21.828 7.914,-10.211 12.074,-22.516 12.074,-35.152 10e-4,-4.466 -0.534,-9.036 -1.607,-13.554 z M 716.938,903.572 821.682,470.15 h 95.449 l 116.895,433.422 z"
   id="path376"
   inkscape:connector-curvature="0"
   style="stroke:#000000" />
		<path
   d="m 729.242,475.613 c 0.383,-2.63 0.689,-5.565 0.689,-8.885 -0.025,-13.504 -4.773,-26.523 -13.555,-36.889 -10.877,-12.688 -26.5,-19.988 -43.348,-20.039 h -326.1 c -17.562,0 -34.029,8.066 -44.828,21.826 -8.041,10.237 -12.1,22.67 -12.1,35.204 0,4.621 0.562,9.165 1.635,13.556 L 410.596,921.39 c 2.206,8.739 6.471,16.6 12.202,23.122 l 46.411,185.649 h 91.57 l 41.618,-178.899 c 10.261,-8.301 17.657,-20.134 20.187,-33.854 L 729.037,476.992 Z M 563.818,903.547 H 468.291 L 351.396,470.15 H 668.56 Z"
   id="path378"
   inkscape:connector-curvature="0"
   style="stroke:#000000" />
	</g>
</g>
<g
   id="landmark_dining__x002F__pub"
   display="none"
   style="display:none">
	<g
   display="inline"
   id="g389"
   style="display:inline">
		<path
   d="m 360.484,154.632 c 5.088,132.874 3.84,226.009 -3.791,279.451 H 345.222 L 324.247,154.632 h -13.33 l -10.5,279.451 H 286.103 L 275.64,154.632 h -12.418 l -1.92,17.255 -19.055,262.196 h -11.434 c -7.645,-53.442 -8.916,-146.577 -3.828,-279.451 h -10.498 c -21.598,77.608 -32.098,162.775 -31.461,255.573 1.26,68.058 20.014,119.196 56.25,153.536 22.27,20.975 33.08,43.244 32.443,66.737 l -13.354,462.504 c -0.66,9.551 2.207,17.662 8.566,24.31 6.348,6.72 13.967,10.031 22.883,10.031 h 3.826 c 8.893,0 16.523,-3.312 22.906,-10.031 6.336,-6.647 9.191,-14.759 8.543,-24.31 L 313.782,639.069 c 0,-19.701 2.508,-34.628 7.596,-44.827 3.814,-7.631 13.342,-19.054 28.592,-34.316 28.006,-24.117 44.828,-63.905 50.551,-119.22 1.285,-10.799 1.92,-20.949 1.92,-30.501 0.637,-92.798 -9.861,-177.965 -31.461,-255.573 z"
   id="path383"
   inkscape:connector-curvature="0"
   style="stroke:#000000" />
		<path
   d="m 643.859,160.367 c -34.328,0 -64.518,26.374 -90.592,79.145 -24.801,50.227 -37.207,105.564 -37.207,165.942 0,69.305 21.957,122.051 65.812,158.287 16.535,12.743 26.361,21.311 29.564,25.773 8.893,10.823 13.031,24.454 12.396,40.964 l -14.303,462.504 c 0,9.551 3.166,17.662 9.551,24.31 6.334,6.72 13.967,10.031 22.881,10.031 h 3.805 c 8.891,0 16.521,-3.312 22.893,-10.031 6.359,-6.647 9.203,-14.759 8.58,-24.31 L 663.872,639.069 c -0.648,-30.5 14.627,-56.874 45.775,-79.144 41.324,-29.853 61.984,-81.375 61.984,-154.472 0,-60.378 -12.406,-115.716 -37.172,-165.942 -26.082,-52.77 -56.271,-79.144 -90.6,-79.144 z"
   id="path385"
   inkscape:connector-curvature="0"
   style="stroke:#000000" />
		<path
   d="m 1105.848,520.019 c 0,0 12.578,-214.004 -31.309,-353.244 5.474,-3.396 9.135,-9.442 9.135,-16.366 0,-10.631 -8.641,-19.246 -19.271,-19.246 h -96.277 c -10.654,0 -19.246,8.615 -19.246,19.246 0,6.773 3.479,12.712 8.746,16.147 -43.966,139.235 -31.352,353.463 -31.352,353.463 -41.156,41.131 -56.971,75.951 -56.971,126.562 0,41.468 0,339.9 0,446.714 0,23.613 17.039,37.867 35.996,37.867 18.936,0 206.619,0 223.826,0 17.205,0 33.668,-16.318 33.668,-43.051 0,-110.917 0,-400.734 0,-441.53 0,-50.611 -15.814,-85.432 -56.945,-126.562 z"
   id="path387"
   inkscape:connector-curvature="0"
   style="stroke:#000000" />
	</g>
</g>
<g
   id="prison__x002F__detention_center"
   display="none"
   style="display:none">
	<g
   display="inline"
   id="g394"
   style="display:inline">
		<path
   d="m 271,127.162 v 1000 h 743.205 V 1100.97 127.162 Z M 463.279,687.84 c 0,-30.127 24.402,-54.53 54.518,-54.53 30.116,0 54.518,24.403 54.518,54.53 0,21.285 -12.208,39.719 -30.001,48.7 l 46.937,85.68 H 458.285 l 36.308,-85.033 C 476.088,728.464 463.279,709.646 463.279,687.84 Z M 731.65,902.802 v 171.951 H 552.857 V 902.802 Z m 0,-334.905 H 552.857 V 179.572 H 731.65 Z M 500.424,179.572 V 567.898 H 323.422 V 179.572 Z m -177.002,723.23 h 177.002 v 171.951 H 323.422 Z M 961.76,1074.753 H 784.084 V 179.572 H 961.76 Z"
   id="path392"
   inkscape:connector-curvature="0"
   style="stroke:#000000" />
	</g>
</g>
<g
   id="military_site"
   display="none"
   style="display:none">
	<g
   display="inline"
   id="g399"
   style="display:inline">
		<path
   d="m 904.225,560.948 c 69.682,103.386 150.719,139.901 150.719,139.901 L 1249.798,437.386 C 1192.927,259.793 1007.357,187.17 924.939,163.133 c -2.967,-9.564 -9.078,-18.258 -18.182,-24.088 -20.482,-13.016 -47.613,-7.032 -60.629,13.399 L 628.618,494.052 418.828,155.82 c -12.811,-20.636 -39.891,-26.901 -60.451,-14.141 -7.518,4.628 -13.041,11.2 -16.545,18.642 -81.393,20.917 -288.547,91.06 -358.025,291.258 l -4.807,14.192 213.93,297.447 21.66,-9.437 c 3.195,-1.406 89.627,-39.585 164.961,-148.109 25.061,-39.457 101.518,-100.981 146.908,-109.753 l 49.838,80.32 -311,488.439 c -13.041,20.432 -7.031,47.588 13.477,60.604 7.289,4.68 15.42,6.879 23.5,6.879 14.5,0 28.717,-7.186 37.027,-20.328 l 288.395,-452.819 280.467,451.31 c 8.338,13.426 22.684,20.815 37.387,20.815 7.875,0 15.879,-2.147 23.09,-6.597 20.586,-12.812 26.902,-39.841 14.117,-60.451 L 679.99,576.854 764.043,444.906 c 54.697,21.914 113.793,76.841 140.182,116.042 z M 235.174,672.849 c -8.975,6.623 -16.953,11.942 -23.602,16.033 L 44.309,456.361 C 81.695,360.008 162.475,298.815 237.732,261.2 c 39.303,-19.562 76.586,-32.45 103.818,-40.326 4.373,-1.253 8.414,-2.378 12.199,-3.375 l 141.23,227.636 c -67.662,21.992 -130.133,81.854 -163.504,127.193 -33.446,48.176 -69.221,80.422 -96.301,100.521 z"
   id="path397"
   inkscape:connector-curvature="0"
   style="stroke:#000000" />
	</g>
</g>
<g
   id="government_office"
   display="none"
   style="display:none">
	<g
   display="inline"
   id="g404"
   style="display:inline">
		<path
   d="M 848.232,1052.791 V 518.02 h -36.335 c -2.693,-94.302 -32.19,-183.494 -116.231,-205.385 -4.949,-39.376 -17.57,-139.914 -18.229,-146.401 -0.939,-9.395 -8.434,-26.07 -23.395,-26.07 -17.662,0 -19.799,19.024 -21.207,27.479 -1.149,6.888 -13.035,107.695 -17.403,144.831 -85.345,23.645 -109.688,127.529 -111.886,205.546 h -35.19 v 534.771 H 380 v 87.371 h 563.096 v -87.371 z M 657.098,563.818 c 37.039,0 66.961,30.016 66.961,67.055 0,37.109 -29.922,67.126 -66.961,67.126 -37.086,0 -67.08,-30.017 -67.08,-67.126 0,-37.039 29.994,-67.055 67.08,-67.055 z"
   id="path402"
   inkscape:connector-curvature="0"
   style="stroke:#000000" />
	</g>
</g>
<g
   id="archaeological_site"
   display="none"
   style="display:none">
	<g
   display="inline"
   id="g409"
   style="display:inline">
		<path
   d="M 644.832,388.133 334,127.049 V 233.603 807.969 L 667.049,1124.162 965.512,784.466 V 124.162 Z M 866.113,747.088 660.525,981.008 433.289,765.305 V 340.229 L 644.152,517.342 866.113,334.65 Z"
   id="path407"
   inkscape:connector-curvature="0"
   style="stroke:#000000" />
	</g>
</g>
<g
   id="cultural_site_1_"
   display="none"
   style="display:none">
	<path
   display="inline"
   d="m 947.437,403.1 c -4.802,-36.497 -39.302,-49.377 -77.134,-28.739 -28.95,15.81 -51.455,46.659 -58.367,76.646 l -117.993,61.525 c -16.705,6.603 -38.9,6.131 -50.147,-10.808 -8.149,-18.094 -12.793,-49.437 1.021,-80.194 7.807,-15.001 71.214,-138.973 71.214,-138.973 24.648,-3.098 52.855,-25.668 70.428,-59.078 22.836,-43.452 19.065,-88.728 -8.366,-101.141 -27.415,-12.435 -68.214,12.75 -91.186,56.278 -17.248,32.721 -19.488,66.44 -7.867,86.444 l -68.594,133.678 c -19.689,33.893 -43.708,66.798 -70.422,75.077 -19.103,5.925 -47.082,-1.85 -56.159,-24.154 L 462.402,378.68 c 18.777,-24.469 28.663,-58.058 23.303,-86.542 -7.346,-39.302 -40.734,-53.94 -74.676,-32.661 -33.953,21.306 -55.638,70.52 -48.352,109.854 5.789,31.224 28.164,46.729 54.179,41.13 l 23.671,78.393 c 3.776,20.313 5.251,53.034 -10.856,76.597 -15.772,23.063 -38.64,28.603 -59.116,33.062 l -94.056,-4.471 c -1.741,-26.281 -18.028,-45.557 -43.832,-47.293 -35.472,-2.403 -75.446,29.281 -89.319,70.77 -13.867,41.488 3.776,76.977 39.4,79.276 28.218,1.817 59.121,-17.72 77.595,-46.464 0,0 53.539,2.724 65.892,3.061 19.841,0.542 54.011,17.789 44.733,59.338 -9.75,33.996 -44.516,76.418 -55.953,88.174 -0.212,0.217 -0.326,0.482 -0.516,0.717 l -96.985,96.654 c -19.879,-10.812 -50.744,-2.301 -77.817,24.057 -34.771,33.832 -50.033,84.035 -34.028,112.105 16.043,28.029 57.271,23.303 92.026,-10.531 25.668,-24.979 40.545,-58.832 40.094,-86.129 L 347.334,828.601 c 24.376,-20.248 57.152,-37.197 78.821,-30.258 22.434,8.361 25.282,41.201 22.548,67.172 l -17.833,99.959 c -24.273,16.201 -44.896,47.592 -50.999,81.279 -6.136,33.877 4.221,60.369 24.241,69.234 l -0.185,1.035 2.083,-0.352 c 6.321,2.387 13.499,3.162 21.409,1.871 34.446,-5.658 68.887,-46.859 76.928,-92.059 6.261,-35.104 -5.214,-62.24 -26.671,-70.07 l 21.761,-122.674 c 6.396,-28.066 23.292,-57.439 42.124,-75.551 2.273,-1.838 4.525,-3.803 6.787,-5.75 25.885,-19.299 61.465,-4.471 69.798,2.213 8.345,6.68 45.324,35.184 45.324,35.184 -10.748,30.676 -5.523,62.518 15.403,78.557 26.796,20.475 68.968,7.355 94.094,-29.254 25.104,-36.602 23.748,-82.875 -2.968,-103.42 -19.689,-15.166 -47.673,-12.023 -71.122,5.348 l -63.766,-49.68 c -12.652,-13.156 -9.304,-37.843 3.516,-66.809 13.992,-26.444 37.452,-48.021 56.771,-59.881 l 123.31,-64.302 c 13.444,18.359 40.213,21.832 68.876,6.18 37.928,-20.697 64.681,-67.014 59.853,-103.473 z"
   id="path412"
   inkscape:connector-curvature="0"
   style="display:inline;stroke:#000000" />
</g>
</svg>