{
	"image": "Culture and Society/Public Works and Landmarks/School.svg",
	"allowMany": false,
	"subcategory": "Public Works and Landmarks",
	"name": "School",
	"category": "Culture and Society",
	"description": "",
	"attributes": [],
	"iconSet": "",
	"parent": ""
}