{
	"image": "Sustainable Living/Green Economy/Eco agricultural_Permaculture.svg",
	"allowMany": false,
	"subcategory": "Green Economy",
	"name": "Eco agricultural_Permaculture",
	"category": "Sustainable Living",
	"description": "",
	"attributes": [],
	"iconSet": "",
	"parent": ""
}