{
	"image": "Sustainable Living/Green Economy/Reuse shop_Market.svg",
	"allowMany": false,
	"subcategory": "Green Economy",
	"name": "Reuse shop_Market",
	"category": "Sustainable Living",
	"description": "",
	"attributes": [],
	"iconSet": "",
	"parent": ""
}