{
	"image": "Nature/Outdoor Activities/Canoe_Kayak site.svg",
	"allowMany": false,
	"subcategory": "Outdoor Activities",
	"name": "Canoe_Kayak site",
	"category": "Nature",
	"description": "",
	"attributes": [],
	"iconSet": "",
	"parent": ""
}