{
	"image": "Nature/Outdoor Activities/Sailing_Row boat launch.svg",
	"allowMany": false,
	"subcategory": "Outdoor Activities",
	"name": "Sailing_Row boat launch",
	"category": "Nature",
	"description": "",
	"attributes": [],
	"iconSet": "",
	"parent": ""
}