{
	"image": "Sustainable Living/Mobility/Public_Mass transportation.svg",
	"allowMany": false,
	"subcategory": "Mobility",
	"name": "Public_Mass transportation",
	"category": "Sustainable Living",
	"description": "",
	"attributes": [],
	"iconSet": "",
	"parent": ""
}