{
	"image": "Sustainable Living/Mobility/Traffic hazard.svg",
	"allowMany": false,
	"subcategory": "Mobility",
	"name": "Traffic hazard",
	"category": "Sustainable Living",
	"description": "",
	"attributes": [],
	"iconSet": "",
	"parent": ""
}