{
	"image": "Sustainable Living/Technology and Design/Energy conservation.svg",
	"allowMany": false,
	"subcategory": "Technology and Design",
	"name": "Energy conservation",
	"category": "Sustainable Living",
	"description": "",
	"attributes": [],
	"iconSet": "",
	"parent": ""
}