{
	"image": "Sustainable Living/Hazards and Challenges/Vulnerable site.svg",
	"allowMany": false,
	"subcategory": "Hazards and Challenges",
	"name": "Vulnerable site",
	"category": "Sustainable Living",
	"description": "",
	"attributes": [],
	"iconSet": "",
	"parent": ""
}